date,person,bicycle,car,motorcycle,airplane,bus,train,truck,boat
2020-01-01_00-00,0,0,1,0,0,0,0,0,0
2020-01-01_01-00,0,0,0,0,0,0,0,0,0
2020-01-01_02-00,0,0,0,0,0,0,0,0,0
2020-01-01_03-00,0,0,0,0,0,0,0,0,0
2020-01-01_04-00,1,0,0,0,0,0,0,0,0
2020-01-01_05-00,1,0,0,0,0,0,0,0,0
2020-01-01_06-00,0,0,0,0,0,0,0,0,0
2020-01-01_07-00,0,0,0,0,0,0,0,0,0
2020-01-01_08-00,0,0,0,0,0,0,0,0,0
2020-01-01_09-00,1,0,0,0,0,0,0,0,0
2020-01-01_10-00,1,0,0,0,0,0,0,0,0
2020-01-01_11-00,3,0,0,0,0,0,0,0,0
2020-01-01_12-00,5,0,0,0,0,0,0,0,0
2020-01-01_13-00,16,0,0,0,0,0,0,0,0
2020-01-01_14-00,11,0,0,0,0,0,0,0,0
2020-01-01_15-00,7,0,0,0,0,0,0,0,0
2020-01-01_16-00,12,0,0,0,0,0,0,0,0
2020-01-01_17-00,0,0,0,0,0,0,0,0,0
2020-01-01_18-00,0,0,0,0,0,0,0,0,0
2020-01-01_19-00,0,0,0,0,0,0,0,0,0
2020-01-01_20-00,0,0,0,0,0,0,0,0,0
2020-01-01_21-00,0,0,0,0,0,0,0,0,0
2020-01-01_22-00,1,0,0,0,0,0,0,0,0
2020-01-01_23-00,1,0,0,0,0,0,0,0,0
2020-01-02_00-00,0,0,0,0,0,0,0,0,0
2020-01-02_01-00,0,0,0,0,0,0,0,0,0
2020-01-02_02-00,0,0,0,0,0,0,0,0,0
2020-01-02_03-00,0,0,0,0,0,0,0,0,0
2020-01-02_04-00,0,0,0,0,0,0,0,0,0
2020-01-02_05-00,0,0,0,0,0,0,0,0,0
2020-01-02_06-00,0,0,0,0,0,0,0,0,0
2020-01-02_07-00,0,0,0,0,0,0,0,0,0
2020-01-02_08-00,1,0,0,0,0,0,0,0,0
2020-01-02_09-00,2,0,0,0,0,0,0,0,0
2020-01-02_10-00,0,0,1,0,0,0,0,0,0
2020-01-02_11-00,4,0,0,0,0,0,0,0,0
2020-01-02_12-00,3,0,0,0,0,0,0,0,0
2020-01-02_13-00,1,0,0,0,0,0,0,0,0
2020-01-02_14-00,4,0,0,0,0,0,0,0,0
2020-01-02_15-00,15,0,1,0,0,0,0,0,0
2020-01-02_16-00,12,0,1,0,0,0,0,0,0
2020-01-02_17-00,1,0,0,0,0,0,0,0,0
2020-01-02_18-00,0,0,0,0,0,0,0,0,0
2020-01-02_19-00,0,0,1,0,0,0,0,0,0
2020-01-02_20-00,1,0,0,0,0,0,0,0,0
2020-01-02_21-00,0,0,1,0,0,0,0,0,0
2020-01-02_22-00,0,0,0,0,0,0,0,0,0
2020-01-02_23-00,0,0,0,0,0,0,0,0,0
2020-01-03_00-00,0,0,0,0,0,0,0,0,0
2020-01-03_01-00,0,0,0,0,0,0,0,0,0
2020-01-03_02-00,0,0,0,0,0,0,0,0,0
2020-01-03_03-00,0,0,0,0,0,0,0,0,0
2020-01-03_04-00,0,0,0,0,0,0,0,0,0
2020-01-03_05-00,0,0,0,0,0,0,0,0,0
2020-01-03_06-00,0,0,0,0,0,0,0,0,0
2020-01-03_07-00,0,0,0,0,0,0,0,0,0
2020-01-03_08-00,0,0,0,0,0,0,0,0,0
2020-01-03_09-00,0,0,0,0,0,0,0,0,0
2020-01-03_10-00,0,0,0,0,0,0,0,0,0
2020-01-03_11-00,0,0,0,0,0,0,0,0,0
2020-01-03_12-00,0,0,0,0,0,0,0,0,0
2020-01-03_13-00,3,0,0,0,0,0,0,0,0
2020-01-03_14-00,6,0,0,0,0,0,0,0,0
2020-01-03_15-00,8,0,0,0,0,0,0,0,0
2020-01-03_16-00,4,0,0,0,0,0,0,0,0
2020-01-03_17-00,4,0,0,0,0,0,0,0,0
2020-01-03_18-00,0,0,0,0,0,0,0,0,0
2020-01-03_19-00,2,0,0,0,0,0,0,0,0
2020-01-03_20-00,1,0,0,0,0,0,0,0,0
2020-01-03_21-00,0,0,0,0,0,0,0,0,0
2020-01-03_22-00,1,0,0,0,0,0,0,0,0
2020-01-03_23-00,1,0,0,0,0,0,0,0,0
2020-01-04_00-00,3,0,0,0,0,0,0,0,0
2020-01-04_01-00,0,0,0,0,0,0,0,0,0
2020-01-04_02-00,0,0,0,0,0,0,0,0,0
2020-01-04_03-00,0,0,0,0,0,0,0,0,0
2020-01-04_04-00,0,0,0,0,0,0,0,0,0
2020-01-04_05-00,0,0,0,0,0,0,0,0,0
2020-01-04_06-00,0,0,0,0,0,0,0,0,0
2020-01-04_07-00,0,0,0,0,0,0,0,0,0
2020-01-04_08-00,0,0,0,0,0,0,0,0,0
2020-01-04_09-00,2,0,0,0,0,0,0,0,0
2020-01-04_10-00,3,0,0,0,0,0,0,0,0
2020-01-04_11-00,9,0,0,0,0,0,0,0,0
2020-01-04_12-00,9,0,0,0,0,0,0,0,0
2020-01-04_13-00,17,0,0,0,0,0,0,0,0
2020-01-04_14-00,18,0,0,0,0,0,0,0,0
2020-01-04_15-00,1,0,0,0,0,0,0,0,0
2020-01-04_16-00,5,0,0,0,0,0,0,0,0
2020-01-04_17-00,0,0,0,0,0,0,0,0,0
2020-01-04_18-00,0,0,0,0,0,0,0,0,0
2020-01-04_19-00,0,0,0,0,0,0,0,0,0
2020-01-04_20-00,0,0,0,0,0,0,0,0,0
2020-01-04_21-00,0,0,0,0,0,0,0,0,0
2020-01-04_22-00,0,0,0,0,0,0,0,0,0
2020-01-04_23-00,0,0,0,0,0,0,0,0,0
2020-01-05_00-00,0,0,0,0,0,0,0,0,0
2020-01-05_01-00,0,0,0,0,0,0,0,0,0
2020-01-05_02-00,0,0,0,0,0,0,0,0,0
2020-01-05_03-00,0,0,0,0,0,0,0,0,0
2020-01-05_04-00,0,0,0,0,0,0,0,0,0
2020-01-05_05-00,0,0,0,0,0,0,0,0,0
2020-01-05_06-00,0,0,0,0,0,0,0,0,0
2020-01-05_07-00,0,0,0,0,0,0,0,0,0
2020-01-05_08-00,0,0,0,0,0,0,0,0,0
2020-01-05_09-00,3,0,0,0,0,0,0,0,0
2020-01-05_10-00,11,0,0,0,0,0,0,0,0
2020-01-05_11-00,10,0,0,0,0,0,0,0,0
2020-01-05_12-00,1,0,0,0,0,0,0,0,0
2020-01-05_13-00,11,0,0,0,0,0,0,0,0
2020-01-05_14-00,9,0,0,0,0,0,0,0,0
2020-01-05_15-00,11,0,1,0,0,0,0,0,0
2020-01-05_16-00,8,0,0,0,0,0,0,0,0
2020-01-05_17-00,2,0,0,0,0,0,0,0,0
2020-01-05_18-00,1,0,1,0,0,0,0,0,0
2020-01-05_19-00,0,0,0,0,0,0,0,0,0
2020-01-05_20-00,1,0,0,0,0,0,0,0,0
2020-01-05_21-00,0,0,0,0,0,0,0,0,0
2020-01-05_22-00,0,0,0,0,0,0,0,0,0
2020-01-05_23-00,0,0,0,0,0,0,0,0,0
2020-01-06_00-00,0,0,0,0,0,0,0,0,0
2020-01-06_01-00,0,0,0,0,0,0,0,0,0
2020-01-06_02-00,0,0,0,0,0,0,0,0,0
2020-01-06_03-00,0,0,0,0,0,0,0,0,0
2020-01-06_04-00,0,0,0,0,0,0,0,0,0
2020-01-06_05-00,0,0,0,0,0,0,0,0,0
2020-01-06_06-00,0,0,0,0,0,0,0,0,0
2020-01-06_07-00,0,0,0,0,0,0,0,0,0
2020-01-06_08-00,1,0,0,0,0,0,0,0,0
2020-01-06_09-00,0,0,0,0,0,0,0,0,0
2020-01-06_10-00,3,0,0,0,0,0,0,1,0
2020-01-06_11-00,4,0,0,0,0,0,0,0,0
2020-01-06_12-00,5,0,0,0,0,0,0,0,0
2020-01-06_13-00,11,0,0,0,0,0,0,0,0
2020-01-06_14-00,13,0,0,0,0,0,0,0,0
2020-01-06_15-00,7,0,0,0,0,0,0,0,0
2020-01-06_16-00,15,0,0,0,0,0,0,0,0
2020-01-06_17-00,4,0,0,0,0,0,0,0,0
2020-01-06_18-00,1,0,0,0,0,0,0,0,0
2020-01-06_19-00,0,0,1,0,0,0,0,0,0
2020-01-06_20-00,0,0,0,0,0,0,0,0,0
2020-01-06_21-00,0,0,0,0,0,0,0,0,0
2020-01-06_22-00,0,0,0,0,0,0,0,0,0
2020-01-06_23-00,0,0,0,0,0,0,0,0,0
2020-01-07_00-00,0,0,0,0,0,0,0,0,0
2020-01-07_01-00,0,0,0,0,0,0,0,0,0
2020-01-07_02-00,0,0,0,0,0,0,0,0,0
2020-01-07_03-00,0,0,0,0,0,0,0,0,0
2020-01-07_04-00,0,0,0,0,0,0,0,0,0
2020-01-07_05-00,0,0,0,0,0,0,0,0,0
2020-01-07_06-00,0,0,0,0,0,0,0,0,0
2020-01-07_07-00,0,0,0,0,0,0,0,0,0
2020-01-07_08-00,2,0,0,0,0,0,0,0,0
2020-01-07_09-00,0,0,0,0,0,0,0,0,0
2020-01-07_10-00,0,0,0,0,0,0,0,0,0
2020-01-07_11-00,0,0,0,0,0,0,1,0,0
2020-01-07_12-00,2,0,0,0,0,0,0,0,0
2020-01-07_13-00,0,0,0,0,0,0,0,0,0
2020-01-07_14-00,0,0,0,0,0,0,0,0,0
2020-01-07_15-00,5,0,1,0,0,0,0,0,0
2020-01-07_16-00,2,0,2,0,0,0,0,0,0
2020-01-07_17-00,0,0,0,0,0,0,0,0,0
2020-01-07_18-00,0,0,0,0,0,0,0,0,0
2020-01-07_19-00,1,0,0,0,0,0,0,0,0
2020-01-07_20-00,0,0,0,0,0,0,0,0,0
2020-01-07_21-00,0,0,0,0,0,0,0,0,0
2020-01-07_22-00,0,0,0,0,0,0,0,0,0
2020-01-07_23-00,0,0,0,0,0,0,0,0,0
2020-01-08_00-00,0,0,0,0,0,0,0,0,0
2020-01-08_01-00,0,0,0,0,0,0,0,0,0
2020-01-08_02-00,0,0,0,0,0,0,0,0,0
2020-01-08_03-00,0,0,0,0,0,0,0,0,0
2020-01-08_04-00,0,0,0,0,0,0,0,0,0
2020-01-08_05-00,0,0,0,0,0,0,0,0,0
2020-01-08_06-00,0,0,0,0,0,0,0,0,0
2020-01-08_07-00,0,0,0,0,0,0,0,0,0
2020-01-08_08-00,1,0,3,0,0,0,0,0,0
2020-01-08_09-00,7,0,1,0,0,0,0,0,0
2020-01-08_10-00,0,0,0,0,0,0,0,0,0
2020-01-08_11-00,0,0,0,0,0,0,0,0,0
2020-01-08_12-00,2,0,0,0,0,0,0,0,0
2020-01-08_13-00,3,0,0,0,0,0,0,0,0
2020-01-08_14-00,2,0,0,0,0,0,0,0,0
2020-01-08_15-00,9,0,1,0,0,0,0,0,0
2020-01-08_16-00,5,0,0,0,0,0,0,0,0
2020-01-08_17-00,0,0,0,0,0,0,0,0,0
2020-01-08_18-00,0,0,0,0,0,0,0,0,0
2020-01-08_19-00,0,0,0,0,0,0,0,0,0
2020-01-08_20-00,0,0,0,0,0,0,0,0,0
2020-01-08_21-00,0,0,0,0,0,0,0,0,0
2020-01-08_22-00,0,0,0,0,0,0,0,0,0
2020-01-08_23-00,0,0,0,0,0,0,0,0,0
2020-01-09_00-00,0,0,0,0,0,0,0,0,0
2020-01-09_01-00,0,0,0,0,0,0,0,0,0
2020-01-09_02-00,0,0,0,0,0,0,0,0,0
2020-01-09_03-00,0,0,0,0,0,0,0,0,0
2020-01-09_04-00,0,0,0,0,0,0,0,0,0
2020-01-09_05-00,0,0,0,0,0,0,0,0,0
2020-01-09_06-00,0,0,0,0,0,0,0,0,0
2020-01-09_07-00,0,0,0,0,0,0,0,0,0
2020-01-09_08-00,0,0,0,0,0,1,0,0,0
2020-01-09_09-00,2,0,1,0,0,0,0,0,0
2020-01-09_10-00,0,0,0,0,0,0,0,0,0
2020-01-09_11-00,1,0,2,0,0,0,0,0,0
2020-01-09_12-00,4,0,3,0,0,0,0,0,0
2020-01-09_13-00,4,0,2,0,0,0,0,0,0
2020-01-09_14-00,6,0,4,0,0,0,0,0,0
2020-01-09_15-00,6,0,3,0,0,0,0,0,0
2020-01-09_16-00,0,0,0,0,0,0,0,0,0
2020-01-09_17-00,1,0,0,0,0,0,0,0,0
2020-01-09_18-00,0,0,0,0,0,0,0,0,0
2020-01-09_19-00,0,0,0,0,0,0,0,0,0
2020-01-09_20-00,0,0,0,0,0,0,0,0,0
2020-01-09_21-00,0,0,0,0,0,0,0,0,0
2020-01-09_22-00,0,0,0,0,0,0,0,0,0
2020-01-09_23-00,0,0,0,0,0,0,0,0,0
2020-01-10_00-00,0,0,0,0,0,0,0,0,0
2020-01-10_01-00,0,0,0,0,0,0,0,0,0
2020-01-10_02-00,0,0,0,0,0,0,0,0,0
2020-01-10_03-00,0,0,0,0,0,0,0,0,0
2020-01-10_04-00,0,0,0,0,0,0,0,0,0
2020-01-10_05-00,0,0,0,0,0,0,0,0,0
2020-01-10_06-00,0,0,0,0,0,0,0,0,0
2020-01-10_07-00,1,0,0,0,0,0,0,0,0
2020-01-10_08-00,1,0,5,0,0,0,0,0,0
2020-01-10_09-00,0,0,5,0,0,0,0,0,0
2020-01-10_10-00,1,0,1,0,0,0,0,0,0
2020-01-10_11-00,2,0,2,0,0,0,0,1,0
2020-01-10_12-00,5,0,2,0,0,0,0,0,0
2020-01-10_13-00,6,0,0,0,0,0,0,0,0
2020-01-10_14-00,11,0,3,0,0,0,0,0,0
2020-01-10_15-00,10,0,1,0,0,0,0,0,0
2020-01-10_16-00,11,0,2,0,0,0,0,0,0
2020-01-10_17-00,3,0,0,0,0,0,0,0,0
2020-01-10_18-00,2,0,0,0,0,0,0,0,0
2020-01-10_19-00,4,0,0,0,0,0,0,0,0
2020-01-10_20-00,1,0,0,0,0,0,0,0,0
2020-01-10_21-00,3,0,0,0,0,0,0,0,0
2020-01-10_22-00,1,0,0,0,0,0,0,0,0
2020-01-10_23-00,0,0,0,0,0,0,0,0,0
2020-01-11_00-00,1,0,0,0,0,0,0,0,0
2020-01-11_01-00,0,0,0,0,0,0,0,0,0
2020-01-11_02-00,0,0,0,0,0,0,0,0,0
2020-01-11_03-00,0,0,0,0,0,0,0,0,0
2020-01-11_04-00,0,0,0,0,0,0,0,0,0
2020-01-11_05-00,0,0,0,0,0,0,0,0,0
2020-01-11_06-00,0,0,0,0,0,0,0,0,0
2020-01-11_07-00,0,0,0,0,0,0,0,0,0
2020-01-11_08-00,1,0,0,0,0,0,0,0,0
2020-01-11_09-00,2,0,1,0,0,0,0,0,0
2020-01-11_10-00,6,0,2,0,0,0,0,1,0
2020-01-11_11-00,6,0,3,0,0,0,0,1,0
2020-01-11_12-00,6,0,0,0,0,0,0,0,0
2020-01-11_13-00,7,0,0,0,0,0,0,0,0
2020-01-11_14-00,12,0,0,0,0,0,0,0,0
2020-01-11_15-00,5,0,0,0,0,0,0,0,0
2020-01-11_16-00,8,0,0,0,0,0,0,0,0
2020-01-11_17-00,0,0,0,0,0,0,0,0,0
2020-01-11_18-00,0,0,0,0,0,0,0,0,0
2020-01-11_19-00,0,0,0,0,0,0,0,0,0
2020-01-11_20-00,0,0,0,0,0,0,0,0,0
2020-01-11_21-00,0,0,0,0,0,0,0,0,0
2020-01-11_22-00,0,0,0,0,0,0,0,0,0
2020-01-11_23-00,0,0,0,0,0,0,0,0,0
2020-01-12_00-00,0,0,0,0,0,0,0,0,0
2020-01-12_01-00,0,0,0,0,0,0,0,0,0
2020-01-12_02-00,0,0,0,0,0,0,0,0,0
2020-01-12_03-00,0,0,0,0,0,0,0,0,0
2020-01-12_04-00,0,0,0,0,0,0,0,0,0
2020-01-12_05-00,0,0,0,0,0,0,0,0,0
2020-01-12_06-00,0,0,0,0,0,0,0,0,0
2020-01-12_07-00,0,0,0,0,0,0,0,0,0
2020-01-12_08-00,0,0,0,0,0,0,0,0,0
2020-01-12_09-00,0,0,0,0,0,0,0,0,0
2020-01-12_10-00,0,0,0,0,0,0,0,0,0
2020-01-12_11-00,0,0,0,0,0,0,0,0,0
2020-01-12_12-00,1,0,0,0,0,0,0,0,0
2020-01-12_13-00,0,0,0,0,0,0,0,0,0
2020-01-12_14-00,4,0,0,0,0,0,0,0,0
2020-01-12_15-00,11,0,0,0,0,0,0,0,0
2020-01-12_16-00,4,0,0,0,0,0,0,0,0
2020-01-12_17-00,0,0,0,0,0,0,0,0,0
2020-01-12_18-00,4,0,0,0,0,0,0,0,0
2020-01-12_19-00,0,0,0,0,0,0,0,0,0
2020-01-12_20-00,1,0,0,0,0,0,0,0,0
2020-01-12_21-00,0,0,1,0,0,0,0,0,0
2020-01-12_22-00,0,0,0,0,0,0,0,0,0
2020-01-12_23-00,0,0,0,0,0,0,0,0,0
2020-01-13_00-00,2,0,0,0,0,0,0,0,0
2020-01-13_01-00,0,0,0,0,0,0,0,0,0
2020-01-13_02-00,0,0,0,0,0,0,0,0,0
2020-01-13_03-00,1,0,0,0,0,0,0,0,0
2020-01-13_04-00,0,0,0,0,0,0,0,0,0
2020-01-13_05-00,0,0,0,0,0,0,0,0,0
2020-01-13_06-00,0,0,0,0,0,0,0,0,0
2020-01-13_07-00,0,0,0,0,0,0,0,0,0
2020-01-13_08-00,3,0,2,0,0,0,0,0,0
2020-01-13_09-00,2,0,0,0,0,0,0,0,0
2020-01-13_10-00,7,0,1,0,0,0,0,0,0
2020-01-13_11-00,4,0,1,0,0,0,0,0,0
2020-01-13_12-00,9,0,1,0,0,0,0,0,0
2020-01-13_13-00,2,0,0,0,0,0,0,0,0
2020-01-13_14-00,9,0,0,0,0,0,0,0,0
2020-01-13_15-00,9,0,1,0,0,0,0,0,0
2020-01-13_16-00,9,0,1,0,0,0,0,0,0
2020-01-13_17-00,1,0,0,0,0,0,0,0,0
2020-01-13_18-00,4,0,0,0,0,0,0,0,0
2020-01-13_19-00,0,0,0,0,0,0,0,0,0
2020-01-13_20-00,0,0,0,0,0,0,0,0,0
2020-01-13_21-00,5,0,1,0,0,0,0,0,0
2020-01-13_22-00,0,0,0,0,0,0,0,0,0
2020-01-13_23-00,0,0,0,0,0,0,0,0,0
2020-01-14_00-00,0,0,0,0,0,0,0,0,0
2020-01-14_01-00,0,0,0,0,0,0,0,0,0
2020-01-14_02-00,0,0,0,0,0,0,0,0,0
2020-01-14_03-00,0,0,0,0,0,0,0,0,0
2020-01-14_04-00,0,0,0,0,0,0,0,0,0
2020-01-14_05-00,0,0,0,0,0,0,0,0,0
2020-01-14_06-00,0,0,0,0,0,0,0,0,0
2020-01-14_07-00,0,0,0,0,0,0,0,0,0
2020-01-14_08-00,2,0,0,0,0,0,0,0,0
2020-01-14_09-00,2,0,0,0,0,0,0,0,0
2020-01-14_10-00,1,0,0,0,0,0,0,0,0
2020-01-14_11-00,2,0,0,0,0,0,0,0,0
2020-01-14_12-00,7,0,1,0,0,0,0,0,0
2020-01-14_13-00,2,0,0,0,0,0,0,0,0
2020-01-14_14-00,5,0,0,0,0,0,0,0,0
2020-01-14_15-00,7,0,0,0,0,0,0,0,0
2020-01-14_16-00,4,0,2,0,0,0,0,0,0
2020-01-14_17-00,0,0,0,0,0,0,0,0,0
2020-01-14_18-00,0,0,0,0,0,0,0,0,0
2020-01-14_19-00,0,0,0,0,0,0,0,0,0
2020-01-14_20-00,0,0,0,0,0,0,0,0,0
2020-01-14_21-00,0,0,1,0,0,0,0,0,0
2020-01-14_22-00,0,0,0,0,0,0,0,0,0
2020-01-14_23-00,0,0,0,0,0,0,0,0,0
2020-01-15_00-00,0,0,0,0,0,0,0,0,0
2020-01-15_01-00,0,0,0,0,0,0,0,0,0
2020-01-15_02-00,0,0,0,0,0,0,0,0,0
2020-01-15_03-00,0,0,0,0,0,0,0,0,0
2020-01-15_04-00,0,0,0,0,0,0,0,0,0
2020-01-15_05-00,0,0,0,0,0,0,0,0,0
2020-01-15_06-00,0,0,0,0,0,0,0,0,0
2020-01-15_07-00,0,0,0,0,0,0,0,0,0
2020-01-15_08-00,2,0,0,0,0,0,0,0,0
2020-01-15_09-00,0,0,0,0,0,0,0,0,0
2020-01-15_10-00,0,0,0,0,0,0,0,0,0
2020-01-15_11-00,0,0,0,0,0,0,1,0,0
2020-01-15_12-00,1,0,0,0,0,0,0,0,0
2020-01-15_13-00,1,0,0,0,0,0,0,0,0
2020-01-15_14-00,7,0,0,0,0,0,0,0,0
2020-01-15_15-00,7,0,0,0,0,0,0,0,0
2020-01-15_16-00,2,0,0,0,0,0,0,0,0
2020-01-15_17-00,0,0,0,0,0,0,0,0,0
2020-01-15_18-00,0,0,1,0,0,0,0,0,0
2020-01-15_19-00,1,0,0,0,0,0,0,0,0
2020-01-15_20-00,0,0,0,0,0,0,0,0,0
2020-01-15_21-00,0,0,0,0,0,0,0,0,0
2020-01-15_22-00,0,0,0,0,0,0,0,0,0
2020-01-15_23-00,0,0,0,0,0,0,0,0,0
2020-01-16_00-00,0,0,0,0,0,0,0,0,0
2020-01-16_01-00,0,0,0,0,0,0,0,0,0
2020-01-16_02-00,0,0,0,0,0,0,0,0,0
2020-01-16_03-00,0,0,0,0,0,0,0,0,0
2020-01-16_04-00,0,0,0,0,0,0,0,0,0
2020-01-16_05-00,0,0,0,0,0,0,0,0,0
2020-01-16_06-00,0,0,0,0,0,0,0,0,0
2020-01-16_07-00,0,0,0,0,0,0,0,0,0
2020-01-16_08-00,0,0,0,0,0,0,0,0,0
2020-01-16_09-00,1,0,1,0,0,0,0,0,0
2020-01-16_10-00,3,0,5,0,0,0,0,0,0
2020-01-16_11-00,1,0,5,0,0,0,0,0,0
2020-01-16_12-00,5,0,3,0,0,0,1,1,0
2020-01-16_13-00,5,0,3,0,0,0,0,0,0
2020-01-16_14-00,6,0,5,0,0,0,0,0,0
2020-01-16_15-00,6,0,0,0,0,0,0,0,0
2020-01-16_16-00,5,0,0,0,0,0,0,0,0
2020-01-16_17-00,0,0,0,0,0,0,0,0,0
2020-01-16_18-00,0,0,0,0,0,0,0,0,0
2020-01-16_19-00,0,0,0,0,0,0,0,0,0
2020-01-16_20-00,0,0,0,0,0,0,0,0,0
2020-01-16_21-00,0,0,0,0,0,0,0,0,0
2020-01-16_22-00,0,0,0,0,0,0,0,0,0
2020-01-16_23-00,0,0,0,0,0,0,0,0,0
2020-01-17_00-00,0,0,0,0,0,0,0,0,0
2020-01-17_01-00,0,0,0,0,0,0,0,0,0
2020-01-17_02-00,0,0,0,0,0,0,0,0,0
2020-01-17_03-00,0,0,0,0,0,0,0,0,0
2020-01-17_04-00,0,0,0,0,0,0,0,0,0
2020-01-17_05-00,0,0,0,0,0,0,0,0,0
2020-01-17_06-00,0,0,0,0,0,0,0,0,0
2020-01-17_07-00,0,0,0,0,0,0,0,0,0
2020-01-17_08-00,5,0,1,0,0,0,0,0,0
2020-01-17_09-00,1,0,2,0,0,0,0,0,0
2020-01-17_10-00,2,0,2,0,0,0,0,0,0
2020-01-17_11-00,0,0,0,0,0,0,0,0,0
2020-01-17_12-00,1,0,0,0,0,0,0,0,0
2020-01-17_13-00,5,0,3,0,0,0,0,0,0
2020-01-17_14-00,9,0,0,0,0,0,0,0,0
2020-01-17_15-00,2,0,2,0,0,0,0,0,0
2020-01-17_16-00,3,0,0,0,0,0,0,0,0
2020-01-17_17-00,0,0,0,0,0,0,0,0,0
2020-01-17_18-00,0,0,0,0,0,0,0,0,0
2020-01-17_19-00,0,0,0,0,0,0,0,0,0
2020-01-17_20-00,0,0,0,0,0,0,0,0,0
2020-01-17_21-00,0,0,0,0,0,0,0,0,0
2020-01-17_22-00,0,0,0,0,0,0,0,0,0
2020-01-17_23-00,0,0,0,0,0,0,0,0,0
2020-01-18_00-00,0,0,0,0,0,0,0,0,0
2020-01-18_01-00,0,0,0,0,0,0,0,0,0
2020-01-18_02-00,0,0,0,0,0,0,0,0,0
2020-01-18_03-00,0,0,0,0,0,0,0,0,0
2020-01-18_04-00,0,0,0,0,0,0,0,0,0
2020-01-18_05-00,0,0,0,0,0,0,0,0,0
2020-01-18_06-00,0,0,0,0,0,0,0,0,0
2020-01-18_07-00,0,0,0,0,0,0,0,0,0
2020-01-18_08-00,0,0,0,0,0,0,0,1,0
2020-01-18_09-00,0,0,0,0,0,0,0,0,0
2020-01-18_10-00,0,0,0,0,0,0,0,0,0
2020-01-18_11-00,4,0,0,0,0,0,0,1,0
2020-01-18_12-00,7,0,0,0,0,0,0,0,0
2020-01-18_13-00,7,0,0,0,0,0,0,0,0
2020-01-18_14-00,8,0,0,0,0,0,0,0,0
2020-01-18_15-00,9,0,0,0,0,0,0,0,0
2020-01-18_16-00,3,0,1,0,0,0,0,0,0
2020-01-18_17-00,0,0,0,0,0,0,0,0,0
2020-01-18_18-00,0,0,0,0,0,0,0,0,0
2020-01-18_19-00,0,0,0,0,0,0,0,0,0
2020-01-18_20-00,0,0,0,0,0,0,0,0,0
2020-01-18_21-00,0,0,0,0,0,0,0,0,0
2020-01-18_22-00,0,0,0,0,0,0,0,0,0
2020-01-18_23-00,0,0,0,0,0,0,0,0,0
2020-01-19_00-00,0,0,0,0,0,0,0,0,0
2020-01-19_01-00,0,0,0,0,0,0,0,0,0
2020-01-19_02-00,0,0,0,0,0,0,0,0,0
2020-01-19_03-00,0,0,0,0,0,0,0,0,0
2020-01-19_04-00,0,0,0,0,0,0,0,0,0
2020-01-19_05-00,0,0,0,0,0,0,0,0,0
2020-01-19_06-00,0,0,0,0,0,0,0,0,0
2020-01-19_07-00,0,0,0,0,0,0,0,0,0
2020-01-19_08-00,0,0,0,0,0,0,0,0,0
2020-01-19_09-00,3,0,0,0,0,0,0,0,0
2020-01-19_10-00,12,0,0,0,0,0,0,0,0
2020-01-19_11-00,0,0,1,0,0,0,0,0,0
2020-01-19_12-00,9,0,0,0,0,0,0,0,0
2020-01-19_13-00,13,0,0,0,0,0,0,0,0
2020-01-19_14-00,10,0,0,0,0,0,0,0,0
2020-01-19_15-00,7,0,0,0,0,0,0,0,0
2020-01-19_16-00,9,0,0,0,0,0,0,0,0
2020-01-19_17-00,0,0,0,0,0,0,0,0,0
2020-01-19_18-00,0,0,0,0,0,0,0,0,0
2020-01-19_19-00,0,0,0,0,0,0,0,0,0
2020-01-19_20-00,1,0,0,0,0,0,0,0,0
2020-01-19_21-00,0,0,0,0,0,0,0,0,0
2020-01-19_22-00,0,0,0,0,0,0,0,0,0
2020-01-19_23-00,0,0,0,0,0,0,0,0,0
2020-01-20_00-00,0,0,0,0,0,0,0,0,0
2020-01-20_01-00,0,0,0,0,0,0,0,0,0
2020-01-20_02-00,0,0,0,0,0,0,0,0,0
2020-01-20_03-00,0,0,0,0,0,0,0,0,0
2020-01-20_04-00,0,0,0,0,0,0,0,0,0
2020-01-20_05-00,0,0,0,0,0,0,0,0,0
2020-01-20_06-00,0,0,0,0,0,0,0,0,0
2020-01-20_07-00,0,0,0,0,0,0,0,0,0
2020-01-20_08-00,1,0,2,0,0,0,0,0,0
2020-01-20_09-00,1,0,5,0,0,0,0,0,0
2020-01-20_10-00,6,0,3,0,0,0,0,0,0
2020-01-20_11-00,2,0,2,0,0,0,0,0,0
2020-01-20_12-00,4,0,4,0,0,0,0,0,0
2020-01-20_13-00,14,0,3,0,0,0,0,0,0
2020-01-20_14-00,10,0,3,0,0,0,0,0,0
2020-01-20_15-00,10,0,4,0,0,0,0,0,0
2020-01-20_16-00,8,0,4,0,0,0,0,0,0
2020-01-20_17-00,1,0,0,0,0,0,0,0,0
2020-01-20_18-00,1,0,0,0,0,0,0,0,0
2020-01-20_19-00,0,0,0,0,0,0,0,0,0
2020-01-20_20-00,0,0,0,0,0,0,0,0,0
2020-01-20_21-00,0,0,0,0,0,0,0,0,0
2020-01-20_22-00,0,0,1,0,0,0,0,0,0
2020-01-20_23-00,0,0,0,0,0,0,0,0,0
2020-01-21_00-00,0,0,0,0,0,0,0,0,0
2020-01-21_01-00,0,0,0,0,0,0,0,0,0
2020-01-21_02-00,0,0,0,0,0,0,0,0,0
2020-01-21_03-00,0,0,0,0,0,0,0,0,0
2020-01-21_04-00,0,0,0,0,0,0,0,0,0
2020-01-21_05-00,0,0,0,0,0,0,0,0,0
2020-01-21_06-00,0,0,0,0,0,0,0,0,0
2020-01-21_07-00,0,0,0,0,0,0,0,0,0
2020-01-21_08-00,4,0,1,0,0,0,0,0,0
2020-01-21_09-00,0,0,0,0,0,0,0,0,0
2020-01-21_10-00,0,0,0,0,0,0,0,0,0
2020-01-21_11-00,0,0,0,0,0,0,1,0,0
2020-01-21_12-00,1,0,0,0,0,0,0,0,0
2020-01-21_13-00,4,0,0,0,0,0,0,0,0
2020-01-21_14-00,2,0,0,0,0,0,0,0,0
2020-01-21_15-00,4,0,0,0,0,0,0,0,0
2020-01-21_16-00,11,0,0,0,0,0,0,0,0
2020-01-21_17-00,0,0,0,0,0,0,0,0,0
2020-01-21_18-00,0,0,0,0,0,0,0,0,0
2020-01-21_19-00,0,0,0,0,0,0,0,0,0
2020-01-21_20-00,0,0,0,0,0,0,0,0,0
2020-01-21_21-00,0,0,0,0,0,0,0,0,0
2020-01-21_22-00,0,0,0,0,0,0,0,0,0
2020-01-21_23-00,0,0,0,0,0,0,0,0,0
2020-01-22_00-00,0,0,0,0,0,0,0,0,0
2020-01-22_01-00,0,0,0,0,0,0,0,0,0
2020-01-22_02-00,0,0,0,0,0,0,0,0,0
2020-01-22_03-00,0,0,1,0,0,0,0,0,0
2020-01-22_04-00,0,0,0,0,0,0,0,0,0
2020-01-22_05-00,0,0,0,0,0,0,0,0,0
2020-01-22_06-00,0,0,0,0,0,0,0,0,0
2020-01-22_07-00,0,0,0,0,0,0,0,0,0
2020-01-22_08-00,0,0,0,0,0,0,0,0,0
2020-01-22_09-00,0,0,0,0,0,0,0,0,0
2020-01-22_10-00,0,0,0,0,0,0,0,0,0
2020-01-22_11-00,4,0,2,0,0,0,0,0,0
2020-01-22_12-00,5,0,2,0,0,0,0,0,0
2020-01-22_13-00,8,0,2,0,0,0,0,0,0
2020-01-22_14-00,3,0,2,0,0,0,0,0,0
2020-01-22_15-00,1,0,4,0,0,0,0,0,0
2020-01-22_16-00,3,0,1,0,0,0,0,0,0
2020-01-22_17-00,0,0,0,0,0,0,0,0,0
2020-01-22_18-00,0,0,0,0,0,0,0,0,0
2020-01-22_19-00,0,0,0,0,0,0,0,0,0
2020-01-22_20-00,0,0,0,0,0,0,0,0,0
2020-01-22_21-00,0,0,0,0,0,0,0,0,0
2020-01-22_22-00,0,0,0,0,0,0,0,0,0
2020-01-22_23-00,0,0,0,0,0,0,0,0,0
2020-01-23_00-00,0,0,0,0,0,0,0,0,0
2020-01-23_01-00,0,0,0,0,0,0,0,0,0
2020-01-23_02-00,0,0,0,0,0,0,0,0,0
2020-01-23_03-00,0,0,0,0,0,0,0,0,0
2020-01-23_04-00,0,0,0,0,0,0,0,0,0
2020-01-23_05-00,0,0,0,0,0,0,0,0,0
2020-01-23_06-00,0,0,0,0,0,0,0,0,0
2020-01-23_07-00,0,0,0,0,0,0,0,0,0
2020-01-23_08-00,1,0,1,0,0,0,0,0,0
2020-01-23_09-00,4,0,4,0,0,0,0,0,0
2020-01-23_10-00,1,0,0,0,0,0,1,0,0
2020-01-23_11-00,8,0,4,0,0,0,0,0,0
2020-01-23_12-00,4,0,4,0,0,0,0,0,0
2020-01-23_13-00,6,0,3,0,0,0,0,0,0
2020-01-23_14-00,7,0,4,0,0,0,0,0,0
2020-01-23_15-00,4,0,1,0,0,0,0,0,0
2020-01-23_16-00,5,0,0,0,0,0,0,0,0
2020-01-23_17-00,0,0,0,0,0,0,0,0,0
2020-01-23_18-00,0,0,0,0,0,0,0,0,0
2020-01-23_19-00,0,0,0,0,0,0,0,0,0
2020-01-23_20-00,0,0,2,0,0,0,0,0,0
2020-01-23_21-00,0,0,2,0,0,0,0,0,0
2020-01-23_22-00,0,0,0,0,0,0,0,0,0
2020-01-23_23-00,0,0,0,0,0,0,0,0,0
2020-01-24_00-00,0,0,0,0,0,0,0,0,0
2020-01-24_01-00,0,0,0,0,0,0,0,0,0
2020-01-24_02-00,0,0,0,0,0,0,0,0,0
2020-01-24_03-00,0,0,0,0,0,0,0,0,0
2020-01-24_04-00,0,0,0,0,0,0,0,0,0
2020-01-24_05-00,0,0,0,0,0,0,0,0,0
2020-01-24_06-00,0,0,0,0,0,0,0,0,0
2020-01-24_07-00,0,0,0,0,0,0,0,0,0
2020-01-24_08-00,1,0,0,0,0,0,0,0,0
2020-01-24_09-00,0,0,0,0,0,0,0,0,0
2020-01-24_10-00,0,0,0,0,0,0,0,0,0
2020-01-24_11-00,0,0,0,0,0,0,0,0,0
2020-01-24_12-00,0,0,0,0,0,0,0,0,0
2020-01-24_13-00,2,0,0,0,0,0,0,0,0
2020-01-24_14-00,7,0,0,0,0,0,0,0,0
2020-01-24_15-00,1,0,0,0,0,0,0,0,0
2020-01-24_16-00,5,0,0,0,0,0,0,0,0
2020-01-24_17-00,0,0,0,0,0,0,0,0,0
2020-01-24_18-00,0,0,0,0,0,0,0,0,0
2020-01-24_19-00,0,0,0,0,0,0,0,0,0
2020-01-24_20-00,0,0,0,0,0,0,0,0,0
2020-01-24_21-00,0,0,0,0,0,0,0,0,0
2020-01-24_22-00,0,0,0,0,0,0,0,0,0
2020-01-24_23-00,0,0,0,0,0,0,0,0,0
2020-01-25_00-00,0,0,0,0,0,0,0,0,0
2020-01-25_01-00,0,0,0,0,0,0,0,0,0
2020-01-25_02-00,0,0,0,0,0,0,0,0,0
2020-01-25_03-00,0,0,0,0,0,0,0,0,0
2020-01-25_04-00,0,0,0,0,0,0,0,0,0
2020-01-25_05-00,0,0,0,0,0,0,0,0,0
2020-01-25_06-00,0,0,0,0,0,0,0,0,0
2020-01-25_07-00,0,0,0,0,0,0,0,0,0
2020-01-25_08-00,0,0,0,0,0,0,0,0,0
2020-01-25_09-00,0,0,0,0,0,0,0,0,0
2020-01-25_10-00,0,0,0,0,0,0,0,0,0
2020-01-25_11-00,0,0,0,0,0,0,0,0,0
2020-01-25_12-00,1,0,0,0,0,0,0,0,0
2020-01-25_13-00,6,0,0,0,0,0,0,0,0
2020-01-25_14-00,7,0,0,0,0,0,0,0,0
2020-01-25_15-00,5,0,0,0,0,0,0,0,0
2020-01-25_16-00,12,0,0,0,0,0,0,0,0
2020-01-25_17-00,0,0,0,0,0,0,0,0,0
2020-01-25_18-00,0,0,0,0,0,0,0,0,0
2020-01-25_19-00,0,0,0,0,0,0,0,0,0
2020-01-25_20-00,0,0,0,0,0,0,0,0,0
2020-01-25_21-00,0,0,1,0,0,0,0,0,0
2020-01-25_22-00,0,0,0,0,0,0,0,0,0
2020-01-25_23-00,0,0,0,0,0,0,0,0,0
2020-01-26_00-00,0,0,0,0,0,0,0,0,0
2020-01-26_01-00,0,0,0,0,0,0,0,0,0
2020-01-26_02-00,0,0,0,0,0,0,0,0,0
2020-01-26_03-00,0,0,0,0,0,0,0,0,0
2020-01-26_04-00,0,0,0,0,0,0,0,0,0
2020-01-26_05-00,0,0,0,0,0,0,0,0,0
2020-01-26_06-00,0,0,0,0,0,0,0,0,0
2020-01-26_07-00,0,0,0,0,0,0,0,0,0
2020-01-26_08-00,0,0,0,0,0,0,0,0,0
2020-01-26_09-00,4,0,0,0,0,0,0,0,0
2020-01-26_10-00,1,0,1,0,0,0,0,1,0
2020-01-26_11-00,5,0,0,0,0,0,0,0,0
2020-01-26_12-00,6,0,0,0,0,0,0,0,0
2020-01-26_13-00,7,0,0,0,0,0,0,0,0
2020-01-26_14-00,8,0,0,0,0,0,0,0,0
2020-01-26_15-00,12,0,0,0,0,0,0,0,0
2020-01-26_16-00,11,0,0,0,0,0,0,0,0
2020-01-26_17-00,0,0,0,0,0,0,0,0,0
2020-01-26_18-00,0,0,0,0,0,0,0,0,0
2020-01-26_19-00,0,0,0,0,0,0,0,0,0
2020-01-26_20-00,0,0,0,0,0,0,0,0,0
2020-01-26_21-00,0,0,0,0,0,0,0,0,0
2020-01-26_22-00,0,0,0,0,0,0,0,0,0
2020-01-26_23-00,0,0,0,0,0,0,0,0,0
2020-01-27_00-00,0,0,0,0,0,0,0,0,0
2020-01-27_01-00,0,0,1,0,0,0,0,0,0
2020-01-27_02-00,0,0,0,0,0,0,0,0,0
2020-01-27_03-00,0,0,0,0,0,0,0,0,0
2020-01-27_04-00,0,0,0,0,0,0,0,0,0
2020-01-27_05-00,0,0,0,0,0,0,0,0,0
2020-01-27_06-00,0,0,0,0,0,0,0,0,0
2020-01-27_07-00,0,0,0,0,0,0,0,0,0
2020-01-27_08-00,0,0,2,0,0,0,0,0,0
2020-01-27_09-00,0,0,3,0,0,0,0,0,0
2020-01-27_10-00,2,0,1,0,0,0,0,0,0
2020-01-27_11-00,0,0,0,0,0,0,0,0,0
2020-01-27_12-00,1,0,0,0,0,0,0,0,0
2020-01-27_13-00,4,0,0,0,0,0,0,0,0
2020-01-27_14-00,5,0,2,0,0,0,0,0,0
2020-01-27_15-00,6,0,4,0,0,0,0,0,0
2020-01-27_16-00,7,0,4,0,0,0,0,0,0
2020-01-27_17-00,0,0,0,0,0,0,0,0,0
2020-01-27_18-00,0,0,0,0,0,0,0,0,0
2020-01-27_19-00,0,0,0,0,0,0,0,0,0
2020-01-27_20-00,0,0,0,0,0,0,0,0,0
2020-01-27_21-00,0,0,1,0,0,0,0,0,0
2020-01-27_22-00,0,0,0,0,0,0,0,0,0
2020-01-27_23-00,0,0,0,0,0,0,0,0,0
2020-01-28_00-00,0,0,0,0,0,0,0,0,0
2020-01-28_01-00,0,0,0,0,0,0,0,0,0
2020-01-28_02-00,0,0,0,0,0,0,0,0,0
2020-01-28_03-00,0,0,0,0,0,0,0,0,0
2020-01-28_04-00,0,0,0,0,0,0,0,0,0
2020-01-28_05-00,0,0,0,0,0,0,0,0,0
2020-01-28_06-00,0,0,0,0,0,0,0,0,0
2020-01-28_07-00,0,0,0,0,0,0,0,0,0
2020-01-28_08-00,0,0,5,0,0,0,0,0,0
2020-01-28_09-00,0,0,6,0,0,0,0,0,0
2020-01-28_10-00,8,0,3,0,0,0,0,0,0
2020-01-28_11-00,2,0,2,0,0,0,0,0,0
2020-01-28_12-00,0,0,5,0,0,0,0,0,0
2020-01-28_13-00,1,0,0,0,0,0,0,0,0
2020-01-28_14-00,0,0,3,0,0,0,0,0,0
2020-01-28_15-00,2,0,1,0,0,0,0,0,0
2020-01-28_16-00,5,0,0,0,0,0,0,0,0
2020-01-28_17-00,0,0,0,0,0,0,0,0,0
2020-01-28_18-00,0,0,0,0,0,0,0,0,0
2020-01-28_19-00,0,0,0,0,0,0,0,0,0
2020-01-28_20-00,0,0,0,0,0,0,0,0,0
2020-01-28_21-00,0,0,0,0,0,0,0,0,0
2020-01-28_22-00,0,0,0,0,0,0,0,0,0
2020-01-28_23-00,0,0,0,0,0,0,0,0,0
2020-01-29_00-00,0,0,0,0,0,0,0,0,0
2020-01-29_01-00,1,0,0,0,0,0,0,0,0
2020-01-29_02-00,0,0,0,0,0,0,0,0,0
2020-01-29_03-00,0,0,0,0,0,0,0,0,0
2020-01-29_04-00,0,0,0,0,0,0,0,0,0
2020-01-29_05-00,0,0,0,0,0,0,0,0,0
2020-01-29_06-00,0,0,0,0,0,0,0,0,0
2020-01-29_07-00,0,0,0,0,0,0,0,0,0
2020-01-29_08-00,0,0,0,0,0,0,0,0,0
2020-01-29_09-00,3,0,1,0,0,0,0,1,0
2020-01-29_10-00,1,0,3,0,0,0,0,0,0
2020-01-29_11-00,5,0,2,0,0,0,0,0,0
2020-01-29_12-00,3,0,1,0,0,0,0,0,0
2020-01-29_13-00,2,0,0,0,0,0,0,0,0
2020-01-29_14-00,10,0,0,0,0,0,0,0,0
2020-01-29_15-00,11,0,2,0,0,0,0,0,0
2020-01-29_16-00,10,0,1,0,0,0,0,0,0
2020-01-29_17-00,2,0,0,0,0,0,0,0,0
2020-01-29_18-00,0,0,0,0,0,0,0,0,0
2020-01-29_19-00,0,0,0,0,0,0,0,0,0
2020-01-29_20-00,0,0,0,0,0,0,0,0,0
2020-01-29_21-00,0,0,0,0,0,0,0,0,0
2020-01-29_22-00,0,0,0,0,0,0,0,0,0
2020-01-29_23-00,0,0,0,0,0,0,0,0,0
2020-01-30_00-00,0,0,0,0,0,0,0,0,0
2020-01-30_01-00,0,0,0,0,0,0,0,0,0
2020-01-30_02-00,0,0,0,0,0,0,0,0,0
2020-01-30_03-00,0,0,0,0,0,0,0,0,0
2020-01-30_04-00,0,0,0,0,0,0,0,0,0
2020-01-30_05-00,0,0,0,0,0,0,0,0,0
2020-01-30_06-00,0,0,0,0,0,0,0,0,0
2020-01-30_07-00,0,0,0,0,0,0,0,0,0
2020-01-30_08-00,0,0,4,0,0,0,0,0,0
2020-01-30_09-00,0,0,3,0,0,0,0,1,0
2020-01-30_10-00,1,0,1,0,0,0,0,0,0
2020-01-30_11-00,8,0,1,0,0,0,0,0,0
2020-01-30_12-00,0,0,2,0,0,0,0,0,0
2020-01-30_13-00,4,0,2,0,0,0,0,0,0
2020-01-30_14-00,4,0,3,0,0,0,0,0,0
2020-01-30_15-00,3,0,3,0,0,0,0,0,0
2020-01-30_16-00,3,0,3,0,0,0,0,0,0
2020-01-30_17-00,0,0,0,0,0,0,0,0,0
2020-01-30_18-00,0,0,0,0,0,0,0,0,0
2020-01-30_19-00,0,0,0,0,0,0,0,0,0
2020-01-30_20-00,0,0,0,0,0,0,0,0,0
2020-01-30_21-00,0,0,0,0,0,0,0,0,0
2020-01-30_22-00,0,0,0,0,0,0,0,0,0
2020-01-30_23-00,0,0,0,0,0,0,0,0,0
2020-01-31_00-00,0,0,0,0,0,0,0,0,0
2020-01-31_01-00,0,0,0,0,0,0,0,0,0
2020-01-31_02-00,0,0,0,0,0,0,0,0,0
2020-01-31_03-00,0,0,0,0,0,0,0,0,0
2020-01-31_04-00,0,0,0,0,0,0,0,0,0
2020-01-31_05-00,0,0,0,0,0,0,0,0,0
2020-01-31_06-00,0,0,0,0,0,0,0,0,0
2020-01-31_07-00,0,0,0,0,0,0,0,0,0
2020-01-31_08-00,2,0,1,0,0,1,0,0,0
2020-01-31_09-00,1,0,2,0,0,0,0,1,0
2020-01-31_10-00,1,0,0,0,0,0,0,0,0
2020-01-31_11-00,2,0,1,0,0,0,0,0,0
2020-01-31_12-00,2,0,1,0,0,0,0,0,0
2020-01-31_13-00,4,0,1,0,0,0,0,0,0
2020-01-31_14-00,4,0,2,0,0,0,0,0,0
2020-01-31_15-00,11,0,1,0,0,0,0,0,0
2020-01-31_16-00,2,0,0,0,0,0,0,0,0
2020-01-31_17-00,0,0,0,0,0,0,0,0,0
2020-01-31_18-00,0,0,0,0,0,0,0,0,0
2020-01-31_19-00,0,0,0,0,0,0,0,0,0
2020-01-31_20-00,1,0,0,0,0,0,0,0,0
2020-01-31_21-00,0,0,0,0,0,0,0,0,0
2020-01-31_22-00,0,0,0,0,0,0,0,0,0
2020-01-31_23-00,0,0,0,0,0,0,0,0,0
2020-02-01_00-00,0,0,0,0,0,0,0,0,0
2020-02-01_01-00,0,0,0,0,0,0,0,0,0
2020-02-01_02-00,0,0,0,0,0,0,0,0,0
2020-02-01_03-00,0,0,0,0,0,0,0,0,0
2020-02-01_04-00,0,0,0,0,0,0,0,0,0
2020-02-01_05-00,0,0,0,0,0,0,0,0,0
2020-02-01_06-00,0,0,0,0,0,0,0,0,0
2020-02-01_07-00,0,0,0,0,0,0,0,0,0
2020-02-01_08-00,0,0,0,0,0,0,0,0,0
2020-02-01_09-00,1,0,0,0,0,0,0,0,0
2020-02-01_10-00,2,0,0,0,0,0,0,0,0
2020-02-01_11-00,8,0,0,0,0,0,0,0,0
2020-02-01_12-00,6,0,0,0,0,0,0,0,0
2020-02-01_13-00,4,0,1,0,0,0,0,0,0
2020-02-01_14-00,6,0,0,0,0,0,0,0,0
2020-02-01_15-00,7,0,0,0,0,0,0,0,0
2020-02-01_16-00,9,0,0,0,0,0,0,0,0
2020-02-01_17-00,0,0,0,0,0,0,0,0,0
2020-02-01_18-00,0,0,0,0,0,0,0,0,0
2020-02-01_19-00,0,0,0,0,0,0,0,0,0
2020-02-01_20-00,0,0,0,0,0,0,0,0,0
2020-02-01_21-00,0,0,0,0,0,0,0,0,0
2020-02-01_22-00,0,0,0,0,0,0,0,0,0
2020-02-01_23-00,0,0,0,0,0,0,0,0,0
2020-02-02_00-00,0,0,0,0,0,0,0,0,0
2020-02-02_01-00,0,0,0,0,0,0,0,0,0
2020-02-02_02-00,0,0,0,0,0,0,0,0,0
2020-02-02_03-00,0,0,0,0,0,0,0,0,0
2020-02-02_04-00,0,0,0,0,0,0,0,0,0
2020-02-02_05-00,0,0,0,0,0,0,0,0,0
2020-02-02_06-00,0,0,0,0,0,0,0,0,0
2020-02-02_07-00,0,0,0,0,0,0,0,0,0
2020-02-02_08-00,0,0,0,0,0,0,0,0,0
2020-02-02_09-00,0,0,0,0,0,0,0,0,0
2020-02-02_10-00,0,0,0,0,0,0,0,0,0
2020-02-02_11-00,6,0,0,0,0,0,0,0,0
2020-02-02_12-00,4,0,0,0,0,0,0,1,0
2020-02-02_13-00,14,0,0,0,0,0,0,0,0
2020-02-02_14-00,14,0,0,0,0,0,0,0,0
2020-02-02_15-00,14,0,0,0,0,0,0,0,0
2020-02-02_16-00,8,0,0,0,0,0,0,0,0
2020-02-02_17-00,3,0,0,0,0,0,0,0,0
2020-02-02_18-00,0,0,0,0,0,0,0,0,0
2020-02-02_19-00,0,0,0,0,0,0,0,0,0
2020-02-02_20-00,0,0,0,0,0,0,0,0,0
2020-02-02_21-00,0,0,0,0,0,0,0,0,0
2020-02-02_22-00,0,0,0,0,0,0,0,0,0
2020-02-02_23-00,0,0,0,0,0,0,0,0,0
2020-02-03_00-00,0,0,0,0,0,0,0,0,0
2020-02-03_01-00,0,0,0,0,0,0,0,0,0
2020-02-03_02-00,0,0,0,0,0,0,0,0,0
2020-02-03_03-00,0,0,0,0,0,0,0,0,0
2020-02-03_04-00,0,0,0,0,0,0,0,0,0
2020-02-03_05-00,0,0,0,0,0,0,0,0,0
2020-02-03_06-00,0,0,0,0,0,0,0,0,0
2020-02-03_07-00,0,0,0,0,0,0,0,0,0
2020-02-03_08-00,0,0,1,0,0,0,0,1,0
2020-02-03_09-00,0,0,2,0,0,0,0,2,0
2020-02-03_10-00,3,0,1,0,0,0,0,0,0
2020-02-03_11-00,4,0,1,0,0,0,0,0,0
2020-02-03_12-00,4,0,0,0,0,0,0,0,0
2020-02-03_13-00,4,0,1,0,0,0,0,0,0
2020-02-03_14-00,6,0,1,0,0,0,0,0,0
2020-02-03_15-00,3,0,4,0,0,0,0,0,0
2020-02-03_16-00,2,0,4,0,0,0,0,0,0
2020-02-03_17-00,2,0,0,0,0,0,0,0,0
2020-02-03_18-00,0,0,0,0,0,0,0,0,0
2020-02-03_19-00,0,0,0,0,0,0,0,0,0
2020-02-03_20-00,0,0,0,0,0,0,0,0,0
2020-02-03_21-00,0,0,0,0,0,0,0,0,0
2020-02-03_22-00,0,0,0,0,0,0,0,0,0
2020-02-03_23-00,0,0,0,0,0,0,0,0,0
2020-02-04_00-00,0,0,0,0,0,0,0,0,0
2020-02-04_01-00,0,0,0,0,0,0,0,0,0
2020-02-04_02-00,0,0,0,0,0,0,0,0,0
2020-02-04_03-00,0,0,0,0,0,0,0,0,0
2020-02-04_04-00,0,0,0,0,0,0,0,0,0
2020-02-04_05-00,0,0,0,0,0,0,0,0,0
2020-02-04_06-00,0,0,0,0,0,0,0,0,0
2020-02-04_07-00,0,0,1,0,0,0,0,0,0
2020-02-04_08-00,0,0,2,0,0,0,0,0,0
2020-02-04_09-00,1,0,0,0,0,0,0,1,0
2020-02-04_10-00,0,0,0,0,0,0,0,0,0
2020-02-04_11-00,0,0,0,0,0,0,0,0,0
2020-02-04_12-00,1,0,2,0,0,0,0,0,0
2020-02-04_13-00,0,0,2,0,0,0,0,0,0
2020-02-04_14-00,5,0,1,0,0,0,0,0,0
2020-02-04_15-00,2,0,1,0,0,0,1,0,0
2020-02-04_16-00,2,0,2,0,0,0,0,0,0
2020-02-04_17-00,0,0,0,0,0,0,0,0,0
2020-02-04_18-00,0,0,0,0,0,0,0,0,0
2020-02-04_19-00,0,0,0,0,0,0,0,0,0
2020-02-04_20-00,0,0,0,0,0,0,0,0,0
2020-02-04_21-00,0,0,0,0,0,0,0,0,0
2020-02-04_22-00,0,0,0,0,0,0,0,0,0
2020-02-04_23-00,0,0,0,0,0,0,0,0,0
2020-02-05_00-00,0,0,0,0,0,0,0,0,0
2020-02-05_01-00,0,0,0,0,0,0,0,0,0
2020-02-05_02-00,0,0,0,0,0,0,0,0,0
2020-02-05_03-00,0,0,0,0,0,0,0,0,0
2020-02-05_04-00,0,0,0,0,0,0,0,0,0
2020-02-05_05-00,0,0,0,0,0,0,0,0,0
2020-02-05_06-00,0,0,0,0,0,0,0,0,0
2020-02-05_07-00,0,0,0,0,0,0,0,0,0
2020-02-05_08-00,1,0,1,0,0,0,0,0,0
2020-02-05_09-00,0,0,2,0,0,0,0,0,0
2020-02-05_10-00,0,0,3,0,0,0,0,0,0
2020-02-05_11-00,3,0,1,0,0,0,0,0,0
2020-02-05_12-00,0,0,1,0,0,0,0,0,0
2020-02-05_13-00,4,0,0,0,0,0,0,0,0
2020-02-05_14-00,1,0,0,0,0,0,0,0,0
2020-02-05_15-00,6,0,0,0,0,0,0,0,0
2020-02-05_16-00,10,0,1,0,0,0,0,0,0
2020-02-05_17-00,5,0,0,0,0,0,0,0,0
2020-02-05_18-00,0,0,0,0,0,0,0,0,0
2020-02-05_19-00,0,0,0,0,0,0,0,0,0
2020-02-05_20-00,0,0,0,0,0,0,0,0,0
2020-02-05_21-00,1,0,0,0,0,0,0,0,0
2020-02-05_22-00,0,0,0,0,0,0,0,0,0
2020-02-05_23-00,0,0,0,0,0,0,0,0,0
2020-02-06_00-00,0,0,0,0,0,0,0,0,0
2020-02-06_01-00,0,0,0,0,0,0,0,0,0
2020-02-06_02-00,0,0,0,0,0,0,0,0,0
2020-02-06_03-00,0,0,0,0,0,0,0,0,0
2020-02-06_04-00,0,0,0,0,0,0,0,0,0
2020-02-06_05-00,0,0,0,0,0,0,0,0,0
2020-02-06_06-00,0,0,0,0,0,0,0,0,0
2020-02-06_07-00,0,0,0,0,0,0,0,0,0
2020-02-06_08-00,0,0,6,0,0,0,0,0,0
2020-02-06_09-00,1,0,2,0,0,0,0,0,0
2020-02-06_10-00,2,0,4,0,0,0,0,0,0
2020-02-06_11-00,2,0,4,0,0,0,0,0,0
2020-02-06_12-00,6,0,3,0,0,0,0,0,0
2020-02-06_13-00,5,0,3,0,0,0,0,0,0
2020-02-06_14-00,8,0,4,0,0,0,0,0,0
2020-02-06_15-00,6,0,3,0,0,0,0,0,0
2020-02-06_16-00,3,0,3,0,0,0,0,0,0
2020-02-06_17-00,2,0,0,0,0,0,0,0,0
2020-02-06_18-00,0,0,0,0,0,0,0,0,0
2020-02-06_19-00,0,0,0,0,0,0,0,0,0
2020-02-06_20-00,0,0,0,0,0,0,0,0,0
2020-02-06_21-00,0,0,0,0,0,0,0,0,0
2020-02-06_22-00,0,0,0,0,0,0,0,0,0
2020-02-06_23-00,0,0,0,0,0,0,0,0,0
2020-02-07_00-00,0,0,0,0,0,0,0,0,0
2020-02-07_01-00,0,0,0,0,0,0,0,0,0
2020-02-07_02-00,0,0,0,0,0,0,0,0,0
2020-02-07_03-00,0,0,0,0,0,0,0,0,0
2020-02-07_04-00,0,0,0,0,0,0,0,0,0
2020-02-07_05-00,0,0,0,0,0,0,0,0,0
2020-02-07_06-00,0,0,0,0,0,0,0,0,0
2020-02-07_07-00,1,0,1,0,0,0,0,0,0
2020-02-07_08-00,2,0,3,0,0,0,0,0,0
2020-02-07_09-00,0,0,4,0,0,0,0,1,0
2020-02-07_10-00,1,0,4,0,0,0,0,0,0
2020-02-07_11-00,4,0,3,0,0,0,0,0,0
2020-02-07_12-00,5,0,3,0,0,0,0,0,0
2020-02-07_13-00,3,0,1,0,0,0,0,0,0
2020-02-07_14-00,3,0,0,0,0,0,0,0,0
2020-02-07_15-00,2,0,0,0,0,0,0,0,0
2020-02-07_16-00,4,0,1,0,0,0,0,0,0
2020-02-07_17-00,3,0,1,0,0,0,0,0,0
2020-02-07_18-00,2,0,0,0,0,0,0,0,0
2020-02-07_19-00,0,0,0,0,0,0,0,0,0
2020-02-07_20-00,1,0,0,0,0,0,0,0,0
2020-02-07_21-00,0,0,0,0,0,0,0,0,0
2020-02-07_22-00,0,0,0,0,0,0,0,0,0
2020-02-07_23-00,0,0,0,0,0,0,0,0,0
2020-02-08_00-00,0,0,0,0,0,0,0,0,0
2020-02-08_01-00,0,0,0,0,0,0,0,0,0
2020-02-08_02-00,0,0,0,0,0,0,0,0,0
2020-02-08_03-00,0,0,0,0,0,0,0,0,0
2020-02-08_04-00,0,0,0,0,0,0,0,0,0
2020-02-08_05-00,0,0,0,0,0,0,0,0,0
2020-02-08_06-00,0,0,0,0,0,0,0,0,0
2020-02-08_07-00,0,0,0,0,0,0,0,0,0
2020-02-08_08-00,0,0,0,0,0,0,0,0,0
2020-02-08_09-00,2,0,0,0,0,0,0,0,0
2020-02-08_10-00,0,0,0,0,0,0,1,0,0
2020-02-08_11-00,0,0,0,0,0,0,0,0,0
2020-02-08_12-00,0,0,0,0,0,0,0,0,0
2020-02-08_13-00,1,0,0,0,0,0,0,0,0
2020-02-08_14-00,11,0,0,0,0,0,0,0,0
2020-02-08_15-00,10,0,0,0,0,0,0,0,0
2020-02-08_16-00,5,0,0,0,0,0,0,0,0
2020-02-08_17-00,7,0,0,0,0,0,0,0,0
2020-02-08_18-00,1,0,0,0,0,0,0,0,0
2020-02-08_19-00,0,0,0,0,0,0,0,0,0
2020-02-08_20-00,1,0,0,0,0,0,0,0,0
2020-02-08_21-00,1,0,0,0,0,0,0,0,0
2020-02-08_22-00,0,0,0,0,0,0,0,0,0
2020-02-08_23-00,1,0,0,0,0,0,0,0,0
2020-02-09_00-00,0,0,0,0,0,0,0,0,0
2020-02-09_01-00,0,0,0,0,0,0,0,0,0
2020-02-09_02-00,0,0,0,0,0,0,0,0,0
2020-02-09_03-00,0,0,0,0,0,0,0,0,0
2020-02-09_04-00,0,0,0,0,0,0,0,0,0
2020-02-09_05-00,0,0,0,0,0,0,0,0,0
2020-02-09_06-00,0,0,0,0,0,0,0,0,0
2020-02-09_07-00,1,0,0,0,0,0,0,0,0
2020-02-09_08-00,2,0,0,0,0,1,0,0,0
2020-02-09_09-00,2,0,0,0,0,0,0,0,0
2020-02-09_10-00,0,0,0,0,0,0,0,0,0
2020-02-09_11-00,5,0,0,0,0,0,0,0,0
2020-02-09_12-00,2,0,0,0,0,0,0,0,0
2020-02-09_13-00,0,0,0,0,0,0,0,0,0
2020-02-09_14-00,6,0,0,0,0,0,0,0,0
2020-02-09_15-00,8,0,0,0,0,0,0,0,0
2020-02-09_16-00,2,0,0,0,0,0,0,0,0
2020-02-09_17-00,6,0,0,0,0,0,0,0,0
2020-02-09_18-00,1,0,0,0,0,0,0,0,0
2020-02-09_19-00,0,0,0,0,0,0,0,0,0
2020-02-09_20-00,0,0,0,0,0,0,0,0,0
2020-02-09_21-00,0,0,0,0,0,0,0,0,0
2020-02-09_22-00,0,0,0,0,0,0,0,0,0
2020-02-09_23-00,0,0,0,0,0,0,0,0,0
2020-02-10_00-00,0,0,0,0,0,0,0,0,0
2020-02-10_01-00,0,0,0,0,0,0,0,0,0
2020-02-10_02-00,0,0,0,0,0,0,0,0,0
2020-02-10_03-00,0,0,0,0,0,0,0,0,0
2020-02-10_04-00,0,0,0,0,0,0,0,0,0
2020-02-10_05-00,0,0,0,0,0,0,0,0,0
2020-02-10_06-00,0,0,0,0,0,0,0,0,0
2020-02-10_07-00,1,0,0,0,0,0,0,0,0
2020-02-10_08-00,1,0,1,0,0,0,0,0,0
2020-02-10_09-00,1,0,2,0,0,0,0,0,0
2020-02-10_10-00,1,0,2,0,0,0,0,0,0
2020-02-10_11-00,1,0,1,0,0,0,0,0,0
2020-02-10_12-00,0,0,1,0,0,0,0,0,0
2020-02-10_13-00,5,0,1,0,0,0,0,0,0
2020-02-10_14-00,0,0,0,0,0,0,0,0,0
2020-02-10_15-00,2,0,1,0,0,0,0,0,0
2020-02-10_16-00,0,0,0,0,0,0,0,0,0
2020-02-10_17-00,2,0,0,0,0,0,0,0,0
2020-02-10_18-00,0,0,0,0,0,0,0,0,0
2020-02-10_19-00,0,0,0,0,0,0,0,0,0
2020-02-10_20-00,0,0,0,0,0,0,0,0,0
2020-02-10_21-00,0,0,1,0,0,0,0,0,0
2020-02-10_22-00,0,0,0,0,0,0,0,0,0
2020-02-10_23-00,0,0,0,0,0,0,0,0,0
2020-02-11_00-00,0,0,0,0,0,0,0,0,0
2020-02-11_01-00,0,0,0,0,0,0,0,0,0
2020-02-11_02-00,0,0,0,0,0,0,0,0,0
2020-02-11_03-00,0,0,0,0,0,0,0,0,0
2020-02-11_04-00,0,0,0,0,0,0,0,0,0
2020-02-11_05-00,0,0,0,0,0,0,0,0,0
2020-02-11_06-00,0,0,0,0,0,0,0,0,0
2020-02-11_07-00,0,0,0,0,0,1,0,0,0
2020-02-11_08-00,2,0,2,0,0,0,0,0,0
2020-02-11_09-00,0,0,2,0,0,0,0,1,0
2020-02-11_10-00,0,0,2,0,0,0,0,0,0
2020-02-11_11-00,0,0,2,0,0,0,0,0,0
2020-02-11_12-00,4,0,2,0,0,0,0,0,0
2020-02-11_13-00,4,0,2,0,0,0,0,0,0
2020-02-11_14-00,5,0,2,0,0,0,0,1,0
2020-02-11_15-00,3,0,0,0,0,0,0,0,0
2020-02-11_16-00,2,0,2,0,0,0,0,1,0
2020-02-11_17-00,7,0,1,0,0,0,0,0,0
2020-02-11_18-00,0,0,0,0,0,0,0,0,0
2020-02-11_19-00,0,0,0,0,0,0,0,0,0
2020-02-11_20-00,0,0,0,0,0,0,0,0,0
2020-02-11_21-00,0,0,0,0,0,0,0,0,0
2020-02-11_22-00,0,0,0,0,0,0,0,0,0
2020-02-11_23-00,0,0,0,0,0,0,0,0,0
2020-02-12_00-00,0,0,0,0,0,0,0,0,0
2020-02-12_01-00,0,0,0,0,0,0,0,0,0
2020-02-12_02-00,0,0,0,0,0,0,0,0,0
2020-02-12_03-00,0,0,0,0,0,0,0,0,0
2020-02-12_04-00,0,0,0,0,0,0,0,0,0
2020-02-12_05-00,0,0,0,0,0,0,0,0,0
2020-02-12_06-00,0,0,0,0,0,0,0,0,0
2020-02-12_07-00,0,0,0,0,0,0,0,0,0
2020-02-12_08-00,0,0,0,0,0,0,0,0,0
2020-02-12_09-00,0,0,0,0,0,0,0,0,0
2020-02-12_10-00,0,0,0,0,0,0,0,0,0
2020-02-12_11-00,0,0,0,0,0,0,1,0,0
2020-02-12_12-00,8,0,2,0,0,0,0,0,0
2020-02-12_13-00,1,0,3,0,0,0,0,0,0
2020-02-12_14-00,1,0,2,0,0,0,0,0,0
2020-02-12_15-00,1,0,0,0,0,0,0,0,0
2020-02-12_16-00,1,0,0,0,0,0,0,0,0
2020-02-12_17-00,2,0,1,0,0,0,0,0,0
2020-02-12_18-00,0,0,0,0,0,0,0,0,0
2020-02-12_19-00,0,0,0,0,0,0,0,0,0
2020-02-12_20-00,0,0,0,0,0,0,0,0,0
2020-02-12_21-00,0,0,0,0,0,0,0,0,0
2020-02-12_22-00,0,0,0,0,0,0,0,0,0
2020-02-12_23-00,0,0,0,0,0,0,0,0,0
2020-02-13_00-00,0,0,0,0,0,0,0,0,0
2020-02-13_01-00,0,0,0,0,0,0,0,0,0
2020-02-13_02-00,0,0,0,0,0,0,0,0,0
2020-02-13_03-00,0,0,0,0,0,0,0,0,0
2020-02-13_04-00,0,0,0,0,0,0,0,0,0
2020-02-13_05-00,0,0,0,0,0,0,0,0,0
2020-02-13_06-00,0,0,0,0,0,0,0,0,0
2020-02-13_07-00,0,0,0,0,0,0,0,0,0
2020-02-13_08-00,0,0,2,0,0,0,0,0,0
2020-02-13_09-00,0,0,1,0,0,0,0,0,0
2020-02-13_10-00,0,0,1,0,0,0,0,0,0
2020-02-13_11-00,0,0,0,0,0,0,1,0,0
2020-02-13_12-00,0,0,0,0,0,0,1,0,0
2020-02-13_13-00,7,0,0,0,0,0,0,0,0
2020-02-13_14-00,10,0,0,0,0,0,0,0,0
2020-02-13_15-00,6,0,0,0,0,0,0,0,0
2020-02-13_16-00,6,0,0,0,0,0,0,0,0
2020-02-13_17-00,9,0,0,0,0,0,0,0,0
2020-02-13_18-00,4,0,0,0,0,0,0,0,0
2020-02-13_19-00,1,0,0,0,0,0,0,0,0
2020-02-13_20-00,0,0,0,0,0,0,0,0,0
2020-02-13_21-00,0,0,1,0,0,0,0,0,0
2020-02-13_22-00,1,0,0,0,0,0,0,0,0
2020-02-13_23-00,0,0,0,0,0,0,0,0,0
2020-02-14_00-00,0,0,0,0,0,0,0,0,0
2020-02-14_01-00,0,0,0,0,0,0,0,0,0
2020-02-14_02-00,0,0,0,0,0,0,0,0,0
2020-02-14_03-00,0,0,0,0,0,0,0,0,0
2020-02-14_04-00,0,0,0,0,0,0,0,0,0
2020-02-14_05-00,0,0,0,0,0,0,0,0,0
2020-02-14_06-00,0,0,0,0,0,0,0,0,0
2020-02-14_07-00,0,0,0,0,0,0,0,0,0
2020-02-14_08-00,2,0,3,0,0,0,0,0,0
2020-02-14_09-00,0,0,4,0,0,0,0,0,0
2020-02-14_10-00,4,0,2,0,0,0,0,0,0
2020-02-14_11-00,3,0,3,0,0,0,0,0,0
2020-02-14_12-00,7,0,3,0,0,0,0,0,0
2020-02-14_13-00,7,0,3,0,0,0,0,0,0
2020-02-14_14-00,11,0,3,0,0,0,0,0,0
2020-02-14_15-00,15,0,4,0,0,0,0,0,0
2020-02-14_16-00,16,0,1,0,0,0,0,0,0
2020-02-14_17-00,15,0,0,0,0,0,0,0,0
2020-02-14_18-00,1,0,0,0,0,0,0,0,0
2020-02-14_19-00,0,0,0,0,0,0,0,0,0
2020-02-14_20-00,2,0,0,0,0,0,0,0,0
2020-02-14_21-00,1,0,0,0,0,0,0,0,0
2020-02-14_22-00,0,0,0,0,0,0,0,0,0
2020-02-14_23-00,0,0,0,0,0,0,0,0,0
2020-02-15_00-00,0,0,0,0,0,0,0,0,0
2020-02-15_01-00,0,0,0,0,0,0,0,0,0
2020-02-15_02-00,0,0,0,0,0,0,0,0,0
2020-02-15_03-00,0,0,0,0,0,0,0,0,0
2020-02-15_04-00,0,0,0,0,0,0,0,0,0
2020-02-15_05-00,1,0,0,0,0,0,0,0,0
2020-02-15_06-00,0,0,0,0,0,0,0,0,0
2020-02-15_07-00,0,0,0,0,0,0,0,0,0
2020-02-15_08-00,0,0,0,0,0,0,0,0,0
2020-02-15_09-00,0,0,1,0,0,0,0,1,0
2020-02-15_10-00,2,0,0,0,0,0,0,0,0
2020-02-15_11-00,11,0,0,0,0,0,0,0,0
2020-02-15_12-00,7,0,1,0,0,0,0,0,0
2020-02-15_13-00,18,0,0,0,0,0,0,0,0
2020-02-15_14-00,12,0,0,0,0,0,0,0,0
2020-02-15_15-00,9,0,0,0,0,0,0,0,0
2020-02-15_16-00,9,0,0,0,0,0,0,0,0
2020-02-15_17-00,9,0,0,0,0,0,0,0,0
2020-02-15_18-00,0,0,0,0,0,0,0,0,0
2020-02-15_19-00,0,0,0,0,0,0,0,0,0
2020-02-15_20-00,0,0,0,0,0,0,0,0,0
2020-02-15_21-00,0,0,0,0,0,0,0,0,0
2020-02-15_22-00,0,0,0,0,0,0,0,0,0
2020-02-15_23-00,0,0,0,0,0,0,0,0,0
2020-02-16_00-00,0,0,0,0,0,0,0,0,0
2020-02-16_01-00,0,0,0,0,0,0,0,0,0
2020-02-16_02-00,0,0,0,0,0,0,0,0,0
2020-02-16_03-00,0,0,0,0,0,0,0,0,0
2020-02-16_04-00,0,0,0,0,0,0,0,0,0
2020-02-16_05-00,0,0,0,0,0,0,0,0,0
2020-02-16_06-00,0,0,0,0,0,0,0,0,0
2020-02-16_07-00,2,0,0,0,0,0,0,0,0
2020-02-16_08-00,0,0,0,0,0,0,0,0,0
2020-02-16_09-00,0,0,0,0,0,0,0,0,0
2020-02-16_10-00,0,0,0,0,0,0,0,0,0
2020-02-16_11-00,10,0,0,0,0,0,0,0,0
2020-02-16_12-00,3,0,1,0,0,0,0,0,0
2020-02-16_13-00,11,0,0,0,0,0,0,0,0
2020-02-16_14-00,17,0,1,0,0,0,0,0,0
2020-02-16_15-00,11,0,0,0,0,0,0,0,0
2020-02-16_16-00,9,0,0,0,0,0,0,0,0
2020-02-16_17-00,17,0,0,0,0,0,0,0,0
2020-02-16_18-00,0,0,1,0,0,0,0,0,0
2020-02-16_19-00,1,0,0,0,0,0,0,0,0
2020-02-16_20-00,0,0,0,0,0,0,0,0,0
2020-02-16_21-00,0,0,0,0,0,0,0,0,0
2020-02-16_22-00,0,0,0,0,0,0,0,0,0
2020-02-16_23-00,0,0,0,0,0,0,0,0,0
2020-02-17_00-00,0,0,0,0,0,0,0,0,0
2020-02-17_01-00,0,0,0,0,0,0,0,0,0
2020-02-17_02-00,0,0,0,0,0,0,0,0,0
2020-02-17_03-00,0,0,0,0,0,0,0,0,0
2020-02-17_04-00,0,0,0,0,0,0,0,0,0
2020-02-17_05-00,0,0,0,0,0,0,0,0,0
2020-02-17_06-00,0,0,0,0,0,0,0,0,0
2020-02-17_07-00,0,0,0,0,0,0,0,0,0
2020-02-17_08-00,0,0,2,0,0,0,0,0,0
2020-02-17_09-00,0,0,6,0,0,0,0,1,0
2020-02-17_10-00,0,0,2,0,0,0,0,0,0
2020-02-17_11-00,1,0,0,0,0,0,0,0,0
2020-02-17_12-00,2,0,0,0,0,0,0,0,0
2020-02-17_13-00,1,0,0,0,0,0,0,0,0
2020-02-17_14-00,8,0,0,0,0,0,0,0,0
2020-02-17_15-00,3,0,0,0,0,0,0,0,0
2020-02-17_16-00,3,0,1,0,0,0,0,0,0
2020-02-17_17-00,11,0,0,0,0,0,0,0,0
2020-02-17_18-00,3,0,0,0,0,0,0,0,0
2020-02-17_19-00,0,0,1,0,0,0,0,0,0
2020-02-17_20-00,2,0,0,0,0,0,0,0,0
2020-02-17_21-00,0,0,0,0,0,0,0,0,0
2020-02-17_22-00,0,0,1,0,0,0,0,0,0
2020-02-17_23-00,0,0,0,0,0,0,0,0,0
2020-02-18_00-00,0,0,0,0,0,0,0,0,0
2020-02-18_01-00,0,0,0,0,0,0,0,0,0
2020-02-18_02-00,0,0,0,0,0,0,0,0,0
2020-02-18_03-00,0,0,0,0,0,0,0,0,0
2020-02-18_04-00,0,0,0,0,0,0,0,0,0
2020-02-18_05-00,0,0,0,0,0,0,0,0,0
2020-02-18_06-00,0,0,0,0,0,0,0,0,0
2020-02-18_07-00,1,0,1,0,0,0,0,0,0
2020-02-18_08-00,1,0,0,0,0,0,0,0,0
2020-02-18_09-00,0,0,0,0,0,0,0,0,0
2020-02-18_10-00,0,0,0,0,0,0,1,0,0
2020-02-18_11-00,11,0,3,0,0,0,0,0,0
2020-02-18_12-00,6,0,1,0,0,0,0,0,0
2020-02-18_13-00,1,0,0,0,0,0,0,0,0
2020-02-18_14-00,1,0,0,0,0,0,0,0,0
2020-02-18_15-00,6,0,0,0,0,0,0,0,0
2020-02-18_16-00,5,0,0,0,0,0,0,0,0
2020-02-18_17-00,6,0,0,0,0,0,0,0,0
2020-02-18_18-00,0,0,0,0,0,0,0,0,0
2020-02-18_19-00,0,0,0,0,0,0,0,0,0
2020-02-18_20-00,0,0,0,0,0,0,0,0,0
2020-02-18_21-00,0,0,0,0,0,0,0,0,0
2020-02-18_22-00,0,0,0,0,0,0,0,0,0
2020-02-18_23-00,0,0,0,0,0,0,0,0,0
2020-02-19_00-00,0,0,0,0,0,0,0,0,0
2020-02-19_01-00,0,0,0,0,0,0,0,0,0
2020-02-19_02-00,0,0,0,0,0,0,0,0,0
2020-02-19_03-00,0,0,0,0,0,0,0,0,0
2020-02-19_04-00,0,0,0,0,0,0,0,0,0
2020-02-19_05-00,0,0,0,0,0,0,0,0,0
2020-02-19_06-00,0,0,0,0,0,0,0,0,0
2020-02-19_07-00,1,0,1,0,0,0,0,0,0
2020-02-19_08-00,1,0,1,0,0,0,0,0,0
2020-02-19_09-00,1,0,2,0,0,0,0,0,0
2020-02-19_10-00,1,0,2,0,0,0,0,0,0
2020-02-19_11-00,0,0,0,0,0,0,1,0,0
2020-02-19_12-00,6,0,3,0,0,0,0,1,0
2020-02-19_13-00,6,0,3,0,0,0,0,1,0
2020-02-19_14-00,13,0,3,0,0,0,0,0,0
2020-02-19_15-00,13,0,3,0,0,0,0,0,0
2020-02-19_16-00,7,0,4,0,0,0,0,0,0
2020-02-19_17-00,12,0,1,0,0,0,0,0,0
2020-02-19_18-00,12,0,1,0,0,0,0,0,0
2020-02-19_19-00,0,0,0,0,0,0,0,0,0
2020-02-19_20-00,0,0,0,0,0,0,0,0,0
2020-02-19_21-00,0,0,0,0,0,0,0,0,0
2020-02-19_22-00,0,0,0,0,0,0,0,0,0
2020-02-19_23-00,0,0,0,0,0,0,0,0,0
2020-02-20_00-00,0,0,0,0,0,0,0,0,0
2020-02-20_01-00,0,0,0,0,0,0,0,0,0
2020-02-20_02-00,0,0,0,0,0,0,0,0,0
2020-02-20_03-00,0,0,0,0,0,0,0,0,0
2020-02-20_04-00,0,0,0,0,0,0,0,0,0
2020-02-20_05-00,0,0,0,0,0,0,0,0,0
2020-02-20_06-00,0,0,0,0,0,0,0,0,0
2020-02-20_07-00,0,0,0,0,0,0,0,0,0
2020-02-20_08-00,1,0,1,0,0,0,0,0,0
2020-02-20_09-00,1,0,1,0,0,0,0,0,0
2020-02-20_10-00,5,0,2,0,0,1,0,0,0
2020-02-20_11-00,5,0,2,0,0,1,0,0,0
2020-02-20_12-00,6,0,3,0,0,0,0,0,0
2020-02-20_13-00,2,0,5,0,0,0,0,0,0
2020-02-20_14-00,2,0,5,0,0,0,0,0,0
2020-02-20_15-00,8,0,7,0,0,0,0,0,0
2020-02-20_16-00,8,0,7,0,0,0,0,0,0
2020-02-20_17-00,4,0,2,0,0,0,0,0,0
2020-02-20_18-00,0,0,0,0,0,0,0,0,0
2020-02-20_19-00,0,0,0,0,0,0,0,0,0
2020-02-20_20-00,0,0,0,0,0,0,0,0,0
2020-02-20_21-00,0,0,0,0,0,0,0,0,0
2020-02-20_22-00,0,0,1,0,0,0,0,1,0
2020-02-20_23-00,0,0,1,0,0,0,0,0,0
2020-02-21_00-00,0,0,1,0,0,0,0,0,0
2020-02-21_01-00,0,0,0,0,0,0,0,0,0
2020-02-21_02-00,0,0,0,0,0,0,0,0,0
2020-02-21_03-00,0,0,0,0,0,0,0,0,0
2020-02-21_04-00,0,0,0,0,0,0,0,0,0
2020-02-21_05-00,0,0,0,0,0,0,0,0,0
2020-02-21_06-00,0,0,0,0,0,0,0,0,0
2020-02-21_07-00,0,0,0,0,0,0,0,0,0
2020-02-21_08-00,2,0,3,0,0,0,0,0,0
2020-02-21_09-00,1,0,3,0,0,0,0,0,0
2020-02-21_10-00,1,0,3,0,0,0,0,0,0
2020-02-21_11-00,3,0,1,0,0,0,0,0,0
2020-02-21_12-00,3,0,1,0,0,0,0,0,0
2020-02-21_13-00,7,0,1,0,0,0,0,0,0
2020-02-21_14-00,2,0,0,0,0,0,0,0,0
2020-02-21_15-00,2,0,0,0,0,0,0,0,0
2020-02-21_16-00,3,0,1,0,0,0,0,0,0
2020-02-21_17-00,3,0,1,0,0,0,0,0,0
2020-02-21_18-00,4,0,0,0,0,0,0,0,0
2020-02-21_19-00,0,0,0,0,0,0,0,0,0
2020-02-21_20-00,0,0,0,0,0,0,0,0,0
2020-02-21_21-00,0,0,0,0,0,0,0,0,0
2020-02-21_22-00,0,0,0,0,0,0,0,0,0
2020-02-21_23-00,0,0,0,0,0,0,0,0,0
2020-02-22_00-00,0,0,0,0,0,0,0,0,0
2020-02-22_01-00,0,0,0,0,0,0,0,0,0
2020-02-22_02-00,0,0,0,0,0,0,0,0,0
2020-02-22_03-00,0,0,0,0,0,0,0,0,0
2020-02-22_04-00,0,0,0,0,0,0,0,0,0
2020-02-22_05-00,0,0,0,0,0,0,0,0,0
2020-02-22_06-00,0,0,0,0,0,0,0,0,0
2020-02-22_07-00,0,0,0,0,0,0,0,0,0
2020-02-22_08-00,0,0,0,0,0,0,0,0,0
2020-02-22_09-00,0,0,0,0,0,0,0,0,0
2020-02-22_10-00,0,0,0,0,0,0,0,0,0
2020-02-22_11-00,19,0,0,0,0,0,0,0,0
2020-02-22_12-00,15,0,0,0,0,0,0,0,0
2020-02-22_13-00,11,0,0,0,0,0,0,0,0
2020-02-22_14-00,7,0,0,0,0,0,0,0,0
2020-02-22_15-00,12,0,0,0,0,0,0,0,0
2020-02-22_16-00,7,0,0,0,0,0,0,0,0
2020-02-22_17-00,15,0,1,0,0,0,0,0,0
2020-02-22_18-00,7,0,0,0,0,0,0,0,0
2020-02-22_19-00,1,0,0,0,0,0,0,0,0
2020-02-22_20-00,0,0,1,0,0,0,0,0,0
2020-02-22_21-00,1,0,1,0,0,0,0,0,0
2020-02-22_22-00,2,0,0,0,0,0,0,0,0
2020-02-22_23-00,0,0,0,0,0,0,0,0,0
2020-02-23_00-00,2,0,0,0,0,0,0,0,0
2020-02-23_01-00,1,0,1,0,0,0,0,0,0
2020-02-23_02-00,0,0,0,0,0,0,0,0,0
2020-02-23_03-00,0,0,0,0,0,0,0,0,0
2020-02-23_04-00,0,0,0,0,0,0,0,0,0
2020-02-23_05-00,0,0,0,0,0,0,0,0,0
2020-02-23_06-00,0,0,0,0,0,0,0,0,0
2020-02-23_07-00,0,0,0,0,0,0,0,0,0
2020-02-23_08-00,1,0,0,0,0,0,0,0,0
2020-02-23_09-00,1,0,0,0,0,0,0,0,0
2020-02-23_10-00,9,0,0,0,0,0,0,0,0
2020-02-23_11-00,3,0,1,0,0,0,0,0,0
2020-02-23_12-00,7,0,0,0,0,0,0,0,0
2020-02-23_13-00,7,0,0,0,0,0,0,0,0
2020-02-23_14-00,3,0,0,0,0,0,0,0,0
2020-02-23_15-00,3,0,0,0,0,0,0,0,0
2020-02-23_16-00,3,0,0,0,0,0,0,0,0
2020-02-23_17-00,1,0,0,0,0,0,0,0,0
2020-02-23_18-00,0,0,0,0,0,0,0,0,0
2020-02-23_19-00,0,0,0,0,0,0,0,0,0
2020-02-23_20-00,0,0,0,0,0,0,0,0,0
2020-02-23_21-00,0,0,0,0,0,0,0,0,0
2020-02-23_22-00,0,0,0,0,0,0,0,0,0
2020-02-23_23-00,0,0,0,0,0,0,0,0,0
2020-02-24_00-00,0,0,0,0,0,0,0,0,0
2020-02-24_01-00,0,0,0,0,0,0,0,0,0
2020-02-24_02-00,0,0,0,0,0,0,0,0,0
2020-02-24_03-00,0,0,0,0,0,0,0,0,0
2020-02-24_04-00,0,0,0,0,0,0,0,0,0
2020-02-24_05-00,0,0,0,0,0,0,0,0,0
2020-02-24_06-00,0,0,0,0,0,0,0,0,0
2020-02-24_07-00,0,0,0,0,0,0,0,0,0
2020-02-24_08-00,3,0,1,0,0,0,0,0,0
2020-02-24_09-00,1,0,2,0,0,1,0,0,0
2020-02-24_10-00,5,0,2,0,0,0,0,0,0
2020-02-24_11-00,9,0,2,0,0,0,0,0,0
2020-02-24_12-00,9,0,1,0,0,0,0,0,0
2020-02-24_13-00,1,0,2,0,0,0,0,0,0
2020-02-24_14-00,16,0,4,0,0,0,0,0,0
2020-02-24_15-00,6,0,4,0,0,0,0,0,0
2020-02-24_16-00,11,0,0,0,0,0,0,0,0
2020-02-24_17-00,8,0,3,0,0,0,0,0,0
2020-02-24_18-00,0,0,0,0,0,0,0,0,0
2020-02-24_19-00,0,0,0,0,0,0,0,0,0
2020-02-24_20-00,0,0,0,0,0,0,0,0,0
2020-02-24_21-00,0,0,0,0,0,0,0,0,0
2020-02-24_22-00,0,0,0,0,0,0,0,0,0
2020-02-24_23-00,0,0,0,0,0,0,0,0,0
2020-02-25_00-00,0,0,0,0,0,0,0,0,0
2020-02-25_01-00,0,0,0,0,0,0,0,0,0
2020-02-25_02-00,0,0,0,0,0,0,0,0,0
2020-02-25_03-00,0,0,0,0,0,0,0,0,0
2020-02-25_04-00,0,0,0,0,0,0,0,0,0
2020-02-25_05-00,0,0,0,0,0,0,0,0,0
2020-02-25_06-00,0,0,0,0,0,0,0,0,0
2020-02-25_07-00,0,0,0,0,0,0,0,0,0
2020-02-25_08-00,1,0,2,0,0,0,0,0,0
2020-02-25_09-00,4,0,3,0,0,0,0,1,0
2020-02-25_10-00,3,0,3,0,0,0,0,0,0
2020-02-25_11-00,6,0,2,0,0,0,0,0,0
2020-02-25_12-00,4,0,2,0,0,0,0,0,0
2020-02-25_13-00,4,0,2,0,0,0,0,0,0
2020-02-25_14-00,3,0,2,0,0,0,0,0,0
2020-02-25_15-00,9,0,5,0,0,0,0,0,0
2020-02-25_16-00,4,0,1,0,0,0,0,0,0
2020-02-25_17-00,4,0,1,0,0,0,0,0,0
2020-02-25_18-00,0,0,0,0,0,0,0,0,0
2020-02-25_19-00,0,0,0,0,0,0,0,0,0
2020-02-25_20-00,0,0,0,0,0,0,0,0,0
2020-02-25_21-00,0,0,0,0,0,0,0,0,0
2020-02-25_22-00,0,0,0,0,0,0,0,0,0
2020-02-25_23-00,0,0,0,0,0,0,0,0,0
2020-02-26_00-00,0,0,0,0,0,0,0,0,0
2020-02-26_01-00,0,0,0,0,0,0,0,0,0
2020-02-26_02-00,0,0,0,0,0,0,0,0,0
2020-02-26_03-00,0,0,0,0,0,0,0,0,0
2020-02-26_04-00,0,0,0,0,0,0,0,0,0
2020-02-26_05-00,0,0,0,0,0,0,0,0,0
2020-02-26_06-00,0,0,0,0,0,0,0,0,0
2020-02-26_07-00,1,0,0,0,0,0,0,0,0
2020-02-26_08-00,0,0,1,0,0,0,0,0,0
2020-02-26_09-00,3,0,5,0,0,0,0,0,0
2020-02-26_10-00,10,0,1,0,0,0,0,0,0
2020-02-26_11-00,2,0,3,0,0,0,0,1,0
2020-02-26_12-00,13,0,3,0,0,0,0,0,0
2020-02-26_13-00,5,0,3,0,0,0,0,1,0
2020-02-26_14-00,11,0,0,0,0,0,0,0,0
2020-02-26_15-00,10,0,0,0,0,0,0,0,0
2020-02-26_16-00,2,0,4,0,0,0,0,0,0
2020-02-26_17-00,10,0,4,0,0,0,0,0,0
2020-02-26_18-00,0,0,0,0,0,0,0,0,0
2020-02-26_19-00,0,0,0,0,0,0,0,0,0
2020-02-26_20-00,0,0,0,0,0,0,0,0,0
2020-02-26_21-00,1,0,0,0,0,0,0,0,0
2020-02-26_22-00,0,0,0,0,0,0,0,0,0
2020-02-26_23-00,0,0,0,0,0,0,0,0,0
2020-02-27_00-00,0,0,0,0,0,0,0,0,0
2020-02-27_01-00,0,0,0,0,0,0,0,0,0
2020-02-27_02-00,0,0,0,0,0,0,0,0,0
2020-02-27_03-00,0,0,0,0,0,0,0,0,0
2020-02-27_04-00,0,0,0,0,0,0,0,0,0
2020-02-27_05-00,0,0,0,0,0,0,0,0,0
2020-02-27_06-00,0,0,0,0,0,0,0,0,0
2020-02-27_07-00,0,0,0,0,0,0,0,0,0
2020-02-27_08-00,6,0,4,0,0,0,0,0,0
2020-02-27_09-00,1,0,1,0,0,0,0,0,0
2020-02-27_10-00,2,0,3,0,0,0,0,0,0
2020-02-27_11-00,1,0,4,0,0,0,0,0,0
2020-02-27_12-00,5,0,2,0,0,0,0,0,0
2020-02-27_13-00,8,0,3,0,0,0,0,0,0
2020-02-27_14-00,2,0,5,0,0,0,0,0,0
2020-02-27_15-00,2,0,5,0,0,0,0,0,0
2020-02-27_16-00,7,0,3,0,0,0,0,0,0
2020-02-27_17-00,2,0,2,0,0,0,0,0,0
2020-02-27_18-00,0,0,0,0,0,0,0,0,0
2020-02-27_19-00,0,0,0,0,0,0,0,0,0
2020-02-27_20-00,0,0,1,0,0,0,0,0,0
2020-02-27_21-00,0,0,1,0,0,0,0,0,0
2020-02-27_22-00,0,0,0,0,0,0,0,0,0
2020-02-27_23-00,0,0,0,0,0,0,0,0,0
2020-02-28_00-00,0,0,0,0,0,0,0,0,0
2020-02-28_01-00,0,0,0,0,0,0,0,0,0
2020-02-28_02-00,0,0,0,0,0,0,0,0,0
2020-02-28_03-00,0,0,0,0,0,0,0,0,0
2020-02-28_04-00,0,0,0,0,0,0,0,0,0
2020-02-28_05-00,0,0,0,0,0,0,0,0,0
2020-02-28_06-00,0,0,0,0,0,0,0,0,0
2020-02-28_07-00,0,0,2,0,0,0,0,0,0
2020-02-28_08-00,1,0,2,0,0,0,0,0,0
2020-02-28_09-00,1,0,5,0,0,0,0,0,0
2020-02-28_10-00,6,0,3,0,0,0,0,0,0
2020-02-28_11-00,4,0,1,0,0,0,0,0,0
2020-02-28_12-00,11,0,2,0,0,0,0,0,0
2020-02-28_13-00,5,0,3,0,0,0,0,0,0
2020-02-28_14-00,7,0,1,0,0,0,0,0,0
2020-02-28_15-00,2,0,0,0,0,0,0,0,0
2020-02-28_16-00,5,0,0,0,0,0,0,0,0
2020-02-28_17-00,6,0,2,0,0,0,0,0,0
2020-02-28_18-00,0,0,0,0,0,0,0,0,0
2020-02-28_19-00,0,0,0,0,0,0,0,0,0
2020-02-28_20-00,0,0,1,0,0,0,0,0,0
2020-02-28_21-00,0,0,1,0,0,0,0,0,0
2020-02-28_22-00,0,0,0,0,0,0,0,0,0
2020-02-28_23-00,1,0,0,0,0,0,0,0,0
2020-02-29_00-00,0,0,0,0,0,0,0,0,0
2020-02-29_01-00,0,0,0,0,0,0,0,0,0
2020-02-29_02-00,0,0,0,0,0,0,0,0,0
2020-02-29_03-00,0,0,0,0,0,0,0,0,0
2020-02-29_04-00,0,0,0,0,0,0,0,0,0
2020-02-29_05-00,0,0,0,0,0,0,0,0,0
2020-02-29_06-00,0,0,0,0,0,0,0,0,0
2020-02-29_07-00,2,0,0,0,0,0,0,1,0
2020-02-29_08-00,1,0,0,0,0,0,0,1,0
2020-02-29_09-00,6,0,0,0,0,0,0,0,0
2020-02-29_10-00,2,0,0,0,0,0,0,0,0
2020-02-29_11-00,4,0,0,0,0,0,0,0,0
2020-02-29_12-00,18,0,2,0,0,0,0,0,0
2020-02-29_13-00,13,0,0,0,0,0,0,0,0
2020-02-29_14-00,13,0,0,0,0,0,0,0,0
2020-02-29_15-00,9,0,0,0,0,0,0,0,0
2020-02-29_16-00,10,0,0,0,0,0,0,0,0
2020-02-29_17-00,3,0,0,0,0,0,0,0,0
2020-02-29_18-00,0,0,0,0,0,0,0,0,0
2020-02-29_19-00,1,0,0,0,0,0,0,0,0
2020-02-29_20-00,0,0,0,0,0,0,0,0,0
2020-02-29_21-00,0,0,0,0,0,0,0,0,0
2020-02-29_22-00,0,0,0,0,0,0,0,0,0
2020-02-29_23-00,0,0,0,0,0,0,0,0,0
2020-03-01_00-00,0,0,0,0,0,0,0,0,0
2020-03-01_01-00,0,0,0,0,0,0,0,0,0
2020-03-01_02-00,0,0,0,0,0,0,0,0,0
2020-03-01_03-00,0,0,0,0,0,0,0,0,0
2020-03-01_04-00,0,0,0,0,0,0,0,0,0
2020-03-01_05-00,0,0,0,0,0,0,0,0,0
2020-03-01_06-00,0,0,0,0,0,0,0,0,0
2020-03-01_07-00,0,0,0,0,0,0,0,0,0
2020-03-01_08-00,1,0,0,0,0,0,0,1,0
2020-03-01_09-00,0,0,0,0,0,0,0,0,0
2020-03-01_10-00,7,0,0,0,0,0,0,0,0
2020-03-01_11-00,5,0,1,0,0,0,0,0,0
2020-03-01_12-00,9,0,0,0,0,0,0,0,0
2020-03-01_13-00,17,0,0,0,0,0,0,0,0
2020-03-01_14-00,12,0,0,0,0,0,0,0,0
2020-03-01_15-00,12,0,0,0,0,0,0,0,0
2020-03-01_16-00,8,0,1,0,0,0,0,0,0
2020-03-01_17-00,7,0,0,0,0,0,0,0,0
2020-03-01_18-00,0,0,0,0,0,0,0,0,0
2020-03-01_19-00,0,0,0,0,0,0,0,0,0
2020-03-01_20-00,1,0,0,0,0,0,0,0,0
2020-03-01_21-00,3,0,0,0,0,0,0,0,0
2020-03-01_22-00,0,0,0,0,0,0,0,0,0
2020-03-01_23-00,0,0,0,0,0,0,0,0,0
2020-03-02_00-00,0,0,0,0,0,0,0,0,0
2020-03-02_01-00,0,0,0,0,0,0,0,0,0
2020-03-02_02-00,0,0,0,0,0,0,0,0,0
2020-03-02_03-00,0,0,0,0,0,0,0,0,0
2020-03-02_04-00,0,0,0,0,0,0,0,0,0
2020-03-02_05-00,0,0,0,0,0,0,0,0,0
2020-03-02_06-00,0,0,0,0,0,0,0,0,0
2020-03-02_07-00,0,0,0,0,0,0,0,1,0
2020-03-02_08-00,0,0,2,0,0,0,0,0,0
2020-03-02_09-00,0,0,2,0,0,0,0,0,0
2020-03-02_10-00,2,0,2,0,0,0,0,0,0
2020-03-02_11-00,7,0,0,0,0,0,0,0,0
2020-03-02_12-00,6,0,0,0,0,0,0,0,0
2020-03-02_13-00,6,0,0,0,0,0,0,0,0
2020-03-02_14-00,7,0,4,0,0,0,0,0,0
2020-03-02_15-00,11,0,4,0,0,0,0,0,0
2020-03-02_16-00,11,0,5,0,0,0,0,0,0
2020-03-02_17-00,10,0,2,0,0,0,0,0,0
2020-03-02_18-00,0,0,0,0,0,0,0,0,0
2020-03-02_19-00,0,0,0,0,0,0,0,0,0
2020-03-02_20-00,0,0,1,0,0,0,0,0,0
2020-03-02_21-00,0,0,2,0,0,0,0,0,0
2020-03-02_22-00,0,0,0,0,0,0,0,0,0
2020-03-02_23-00,0,0,0,0,0,0,0,0,0
2020-03-03_00-00,1,0,0,0,0,0,0,0,0
2020-03-03_01-00,0,0,0,0,0,0,0,0,0
2020-03-03_02-00,0,0,0,0,0,0,0,0,0
2020-03-03_03-00,0,0,0,0,0,0,0,0,0
2020-03-03_04-00,0,0,0,0,0,0,0,0,0
2020-03-03_05-00,0,0,0,0,0,0,0,0,0
2020-03-03_06-00,0,0,0,0,0,0,0,0,0
2020-03-03_07-00,0,0,0,0,0,0,0,0,0
2020-03-03_08-00,0,0,1,0,0,0,0,0,0
2020-03-03_09-00,2,0,4,0,0,0,0,1,0
2020-03-03_10-00,4,0,1,0,0,0,0,0,0
2020-03-03_11-00,1,0,0,0,0,0,0,0,0
2020-03-03_12-00,5,0,4,0,0,0,0,0,0
2020-03-03_13-00,0,0,3,0,0,0,0,0,0
2020-03-03_14-00,2,0,1,0,0,0,0,0,0
2020-03-03_15-00,6,0,5,0,0,0,0,0,0
2020-03-03_16-00,4,0,4,0,0,0,0,0,0
2020-03-03_17-00,7,0,2,0,0,0,0,0,0
2020-03-03_18-00,1,0,0,0,0,0,0,0,0
2020-03-03_19-00,0,0,0,0,0,0,0,0,0
2020-03-03_20-00,0,0,1,0,0,0,0,0,0
2020-03-03_21-00,1,0,2,0,0,0,0,0,0
2020-03-03_22-00,1,0,0,0,0,0,0,0,0
2020-03-03_23-00,0,0,0,0,0,0,0,0,0
2020-03-04_00-00,0,0,0,0,0,0,0,0,0
2020-03-04_01-00,0,0,0,0,0,0,0,0,0
2020-03-04_02-00,0,0,0,0,0,0,0,0,0
2020-03-04_03-00,0,0,0,0,0,0,0,0,0
2020-03-04_04-00,0,0,0,0,0,0,0,0,0
2020-03-04_05-00,0,0,0,0,0,0,0,0,0
2020-03-04_06-00,0,0,0,0,0,0,0,0,0
2020-03-04_07-00,0,0,2,0,0,0,0,0,0
2020-03-04_08-00,2,0,3,0,0,0,0,0,0
2020-03-04_09-00,0,0,4,0,0,0,0,0,0
2020-03-04_10-00,1,0,2,0,0,0,0,0,0
2020-03-04_11-00,6,0,5,0,0,0,0,0,0
2020-03-04_12-00,8,0,3,0,0,0,0,0,0
2020-03-04_13-00,7,0,4,0,0,0,0,0,0
2020-03-04_14-00,9,0,1,0,0,0,0,0,0
2020-03-04_15-00,6,0,5,0,0,0,0,0,0
2020-03-04_16-00,2,0,4,0,0,0,0,0,0
2020-03-04_17-00,2,0,1,0,0,0,0,0,0
2020-03-04_18-00,0,0,0,0,0,0,0,0,0
2020-03-04_19-00,0,0,0,0,0,0,0,0,0
2020-03-04_20-00,0,0,1,0,0,0,0,0,0
2020-03-04_21-00,0,0,1,0,0,0,0,0,0
2020-03-04_22-00,0,0,0,0,0,0,0,0,0
2020-03-04_23-00,0,0,0,0,0,0,0,0,0
2020-03-05_00-00,0,0,0,0,0,0,0,0,0
2020-03-05_01-00,0,0,0,0,0,0,0,0,0
2020-03-05_02-00,0,0,0,0,0,0,0,0,0
2020-03-05_03-00,0,0,0,0,0,0,0,0,0
2020-03-05_04-00,0,0,0,0,0,0,0,0,0
2020-03-05_05-00,0,0,0,0,0,0,0,0,0
2020-03-05_06-00,0,0,0,0,0,0,0,0,0
2020-03-05_07-00,0,0,0,0,0,0,0,0,0
2020-03-05_08-00,0,0,0,0,0,0,0,0,0
2020-03-05_09-00,0,0,0,0,0,0,1,0,0
2020-03-05_10-00,0,0,0,0,0,0,1,0,0
2020-03-05_11-00,0,0,0,0,0,0,1,0,0
2020-03-05_12-00,0,0,0,0,0,0,0,0,0
2020-03-05_13-00,3,0,0,0,0,0,0,0,0
2020-03-05_14-00,8,0,0,0,0,0,0,0,0
2020-03-05_15-00,11,0,1,0,0,0,0,0,0
2020-03-05_16-00,6,0,1,0,0,0,0,0,0
2020-03-05_17-00,1,0,1,0,0,0,0,0,0
2020-03-05_18-00,12,0,0,0,0,0,0,0,0
2020-03-05_19-00,2,0,0,0,0,0,0,0,0
2020-03-05_20-00,0,0,0,0,0,0,0,0,0
2020-03-05_21-00,0,0,0,0,0,0,0,0,0
2020-03-05_22-00,0,0,0,0,0,0,0,0,0
2020-03-05_23-00,0,0,0,0,0,0,0,0,0
2020-03-06_00-00,0,0,0,0,0,0,0,0,0
2020-03-06_01-00,0,0,0,0,0,0,0,0,0
2020-03-06_02-00,0,0,0,0,0,0,0,0,0
2020-03-06_03-00,0,0,0,0,0,0,0,0,0
2020-03-06_04-00,0,0,0,0,0,0,0,0,0
2020-03-06_05-00,0,0,0,0,0,0,0,0,0
2020-03-06_06-00,0,0,0,0,0,0,0,0,0
2020-03-06_07-00,0,0,0,0,0,0,0,0,0
2020-03-06_08-00,0,0,0,0,0,0,0,0,0
2020-03-06_09-00,0,0,2,0,0,0,0,1,0
2020-03-06_10-00,4,0,0,0,0,0,0,0,0
2020-03-06_11-00,4,0,3,0,0,0,0,0,0
2020-03-06_12-00,8,0,0,0,0,0,0,0,0
2020-03-06_13-00,9,0,0,0,0,0,0,0,0
2020-03-06_14-00,9,0,2,0,0,0,0,0,0
2020-03-06_15-00,5,0,6,0,0,0,0,0,0
2020-03-06_16-00,12,0,6,0,0,0,0,0,0
2020-03-06_17-00,11,0,3,0,0,0,0,0,0
2020-03-06_18-00,0,0,0,0,0,0,0,0,0
2020-03-06_19-00,1,0,0,0,0,0,0,0,0
2020-03-06_20-00,0,0,1,0,0,0,0,0,0
2020-03-06_21-00,0,0,2,0,0,0,0,0,0
2020-03-06_22-00,0,0,0,0,0,0,0,0,0
2020-03-06_23-00,0,0,0,0,0,0,0,0,0
2020-03-07_00-00,0,0,0,0,0,0,0,0,0
2020-03-07_01-00,0,0,0,0,0,0,0,0,0
2020-03-07_02-00,0,0,0,0,0,0,0,0,0
2020-03-07_03-00,0,0,0,0,0,0,0,0,0
2020-03-07_04-00,0,0,0,0,0,0,0,0,0
2020-03-07_05-00,0,0,0,0,0,0,0,0,0
2020-03-07_06-00,0,0,0,0,0,0,0,0,0
2020-03-07_07-00,0,0,0,0,0,0,0,0,0
2020-03-07_08-00,0,0,0,0,0,0,0,0,0
2020-03-07_09-00,0,0,0,0,0,0,0,0,0
2020-03-07_10-00,6,0,1,0,0,0,0,0,0
2020-03-07_11-00,10,0,1,0,0,0,0,1,0
2020-03-07_12-00,8,0,0,0,0,0,0,0,0
2020-03-07_13-00,7,0,0,0,0,0,0,0,0
2020-03-07_14-00,14,0,0,0,0,0,0,0,0
2020-03-07_15-00,9,0,0,0,0,0,0,0,0
2020-03-07_16-00,12,0,0,0,0,0,0,0,0
2020-03-07_17-00,16,0,1,0,0,0,0,0,0
2020-03-07_18-00,0,0,0,0,0,0,0,0,0
2020-03-07_19-00,0,0,0,0,0,0,0,0,0
2020-03-07_20-00,0,0,0,0,0,0,0,0,0
2020-03-07_21-00,0,0,0,0,0,0,0,0,0
2020-03-07_22-00,0,0,0,0,0,0,0,0,0
2020-03-07_23-00,0,0,0,0,0,0,0,0,0
2020-03-08_00-00,0,0,0,0,0,0,0,0,0
2020-03-08_01-00,0,0,0,0,0,0,0,0,0
2020-03-08_02-00,0,0,0,0,0,0,0,0,0
2020-03-08_03-00,0,0,0,0,0,0,0,0,0
2020-03-08_04-00,0,0,0,0,0,0,0,0,0
2020-03-08_05-00,0,0,0,0,0,0,0,0,0
2020-03-08_06-00,0,0,0,0,0,0,0,0,0
2020-03-08_07-00,0,0,0,0,0,0,0,0,0
2020-03-08_08-00,1,0,0,0,0,0,0,0,0
2020-03-08_09-00,2,0,0,0,0,0,0,0,0
2020-03-08_10-00,8,0,0,0,0,0,0,0,0
2020-03-08_11-00,4,0,1,0,0,0,0,0,0
2020-03-08_12-00,4,0,0,0,0,0,0,0,0
2020-03-08_13-00,13,0,1,0,0,1,0,0,0
2020-03-08_14-00,18,0,2,0,0,0,0,1,0
2020-03-08_15-00,7,0,1,0,0,0,0,0,0
2020-03-08_16-00,14,0,1,0,0,0,0,0,0
2020-03-08_17-00,8,0,1,0,0,0,0,1,0
2020-03-08_18-00,1,0,0,0,0,0,0,0,0
2020-03-08_19-00,0,0,2,0,0,0,0,0,0
2020-03-08_20-00,0,0,0,0,0,0,0,0,0
2020-03-08_21-00,0,0,0,0,0,0,0,0,0
2020-03-08_22-00,1,0,0,0,0,0,0,0,0
2020-03-08_23-00,0,0,0,0,0,0,0,0,0
2020-03-09_00-00,1,0,0,0,0,0,0,0,0
2020-03-09_01-00,0,0,0,0,0,0,0,0,0
2020-03-09_02-00,0,0,0,0,0,0,0,0,0
2020-03-09_03-00,0,0,0,0,0,0,0,0,0
2020-03-09_04-00,0,0,0,0,0,0,0,0,0
2020-03-09_05-00,0,0,0,0,0,0,0,0,0
2020-03-09_06-00,0,0,0,0,0,0,0,0,0
2020-03-09_07-00,1,0,1,0,0,0,0,0,0
2020-03-09_08-00,1,0,0,0,0,0,0,0,0
2020-03-09_09-00,0,0,0,0,0,0,1,0,0
2020-03-09_10-00,0,0,0,0,0,0,1,0,0
2020-03-09_11-00,2,0,0,0,0,0,0,0,0
2020-03-09_12-00,1,0,0,0,0,0,0,0,0
2020-03-09_13-00,3,0,0,0,0,0,0,0,0
2020-03-09_14-00,5,0,1,0,0,0,0,0,0
2020-03-09_15-00,5,0,0,0,0,0,0,0,0
2020-03-09_16-00,8,0,0,0,0,0,0,0,0
2020-03-09_17-00,7,0,0,0,0,0,0,0,0
2020-03-09_18-00,2,0,0,0,0,0,0,0,0
2020-03-09_19-00,0,0,0,0,0,0,0,0,0
2020-03-09_21-00,2,0,1,0,0,0,0,0,0
2020-03-09_22-00,0,0,0,0,0,0,0,0,0
2020-03-09_23-00,0,0,0,0,0,0,0,0,0
2020-03-10_00-00,0,0,0,0,0,0,0,0,0
2020-03-10_01-00,0,0,0,0,0,0,0,0,0
2020-03-10_02-00,0,0,0,0,0,0,0,0,0
2020-03-10_03-00,0,0,0,0,0,0,0,0,0
2020-03-10_04-00,0,0,0,0,0,0,0,0,0
2020-03-10_05-00,0,0,0,0,0,0,0,0,0
2020-03-10_06-00,0,0,0,0,0,0,0,0,0
2020-03-10_07-00,2,0,2,0,0,0,0,0,0
2020-03-10_08-00,5,0,5,0,0,0,0,0,0
2020-03-10_09-00,2,0,8,0,0,0,0,0,0
2020-03-10_10-00,0,0,0,0,0,0,0,0,0
2020-03-10_11-00,0,0,0,0,0,0,0,0,0
2020-03-10_12-00,4,0,0,0,0,0,0,0,0
2020-03-10_13-00,1,0,0,0,0,0,0,0,0
2020-03-10_14-00,6,0,2,0,0,0,0,0,0
2020-03-10_15-00,1,0,0,0,0,0,0,0,0
2020-03-10_16-00,3,0,0,0,0,0,0,0,0
2020-03-10_17-00,2,0,2,0,0,0,0,0,0
2020-03-10_18-00,3,0,3,0,0,0,0,0,0
2020-03-10_19-00,0,0,0,0,0,0,0,0,0
2020-03-10_20-00,0,0,0,0,0,0,0,0,0
2020-03-10_21-00,0,0,0,0,0,0,0,0,0
2020-03-10_22-00,0,0,0,0,0,0,0,0,0
2020-03-10_23-00,0,0,0,0,0,0,0,0,0
2020-03-11_00-00,0,0,0,0,0,0,0,0,0
2020-03-11_01-00,0,0,0,0,0,0,0,0,0
2020-03-11_02-00,0,0,0,0,0,0,0,0,0
2020-03-11_03-00,0,0,0,0,0,0,0,0,0
2020-03-11_04-00,0,0,0,0,0,0,0,0,0
2020-03-11_05-00,0,0,0,0,0,0,0,0,0
2020-03-11_06-00,0,0,0,0,0,0,0,0,0
2020-03-11_07-00,0,0,0,0,0,0,0,0,0
2020-03-11_08-00,1,0,3,0,0,0,0,0,0
2020-03-11_09-00,0,0,2,0,0,1,0,0,0
2020-03-11_10-00,0,0,4,0,0,0,0,0,0
2020-03-11_11-00,0,0,2,0,0,0,0,0,0
2020-03-11_12-00,3,0,2,0,0,0,0,0,0
2020-03-11_13-00,5,0,1,0,0,0,0,0,0
2020-03-11_14-00,2,0,0,0,0,0,0,0,0
2020-03-11_15-00,4,0,0,0,0,0,0,0,0
2020-03-11_16-00,6,0,0,0,0,0,0,0,0
2020-03-11_17-00,5,0,1,0,0,0,0,0,0
2020-03-11_18-00,5,0,0,0,0,0,0,0,0
2020-03-11_19-00,0,0,0,0,0,0,0,0,0
2020-03-11_20-00,0,0,0,0,0,0,0,0,0
2020-03-11_21-00,0,0,1,0,0,0,0,0,0
2020-03-11_22-00,0,0,0,0,0,0,0,0,0
2020-03-11_23-00,0,0,0,0,0,0,0,0,0
2020-03-12_00-00,0,0,0,0,0,0,0,0,0
2020-03-12_01-00,0,0,0,0,0,0,0,0,0
2020-03-12_02-00,0,0,0,0,0,0,0,0,0
2020-03-12_03-00,0,0,0,0,0,0,0,0,0
2020-03-12_04-00,0,0,0,0,0,0,0,0,0
2020-03-12_05-00,0,0,0,0,0,0,0,0,0
2020-03-12_06-00,0,0,0,0,0,0,0,0,0
2020-03-12_07-00,0,0,0,0,0,0,0,0,0
2020-03-12_08-00,0,0,3,0,0,0,0,0,0
2020-03-12_09-00,1,0,0,0,0,0,1,0,0
2020-03-12_10-00,7,0,2,0,0,0,0,0,0
2020-03-12_11-00,5,0,1,0,0,0,0,0,0
2020-03-12_12-00,3,0,2,0,0,0,0,0,0
2020-03-12_13-00,5,0,1,0,0,0,0,0,0
2020-03-12_14-00,8,0,3,0,0,0,0,0,0
2020-03-12_15-00,8,0,1,0,0,0,0,0,0
2020-03-12_16-00,11,0,0,0,0,0,0,0,0
2020-03-12_17-00,3,0,0,0,0,0,0,0,0
2020-03-12_18-00,1,0,0,0,0,0,0,0,0
2020-03-12_19-00,0,0,0,0,0,0,0,0,0
2020-03-12_20-00,0,0,0,0,0,0,0,0,0
2020-03-12_21-00,0,0,0,0,0,0,0,0,0
2020-03-12_22-00,0,0,0,0,0,0,0,0,0
2020-03-12_23-00,0,0,0,0,0,0,0,0,0
2020-03-13_00-00,0,0,0,0,0,0,0,0,0
2020-03-13_01-00,0,0,0,0,0,0,0,0,0
2020-03-13_02-00,0,0,0,0,0,0,0,0,0
2020-03-13_03-00,0,0,0,0,0,0,0,0,0
2020-03-13_04-00,0,0,0,0,0,0,0,0,0
2020-03-13_05-00,0,0,0,0,0,0,0,0,0
2020-03-13_06-00,1,0,0,0,0,0,0,0,0
2020-03-13_07-00,0,0,0,0,0,0,0,0,0
2020-03-13_08-00,1,0,0,0,0,0,0,0,0
2020-03-13_09-00,0,0,2,0,0,0,0,1,0
2020-03-13_10-00,0,0,0,0,0,0,0,0,0
2020-03-13_11-00,8,0,1,0,0,0,0,0,0
2020-03-13_12-00,9,0,1,0,0,0,0,0,0
2020-03-13_13-00,2,0,0,0,0,0,0,0,0
2020-03-13_14-00,1,0,0,0,0,0,0,0,0
2020-03-13_15-00,1,0,0,0,0,0,0,0,0
2020-03-13_16-00,3,0,0,0,0,0,0,0,0
2020-03-13_17-00,3,0,0,0,0,0,0,0,0
2020-03-13_18-00,4,0,0,0,0,0,0,0,0
2020-03-13_19-00,0,0,0,0,0,0,0,0,0
2020-03-13_20-00,0,0,0,0,0,0,0,0,0
2020-03-13_21-00,0,0,0,0,0,0,0,0,0
2020-03-13_22-00,0,0,0,0,0,0,0,0,0
2020-03-13_23-00,0,0,0,0,0,0,0,0,0
2020-03-14_00-00,0,0,0,0,0,0,0,0,0
2020-03-14_01-00,0,0,0,0,0,0,0,0,0
2020-03-14_02-00,0,0,0,0,0,0,0,0,0
2020-03-14_03-00,0,0,0,0,0,0,0,0,0
2020-03-14_04-00,0,0,0,0,0,0,0,0,0
2020-03-14_05-00,0,0,0,0,0,0,0,0,0
2020-03-14_06-00,0,0,0,0,0,0,0,0,0
2020-03-14_07-00,0,0,0,0,0,0,0,0,0
2020-03-14_08-00,2,0,0,0,0,0,0,0,0
2020-03-14_09-00,2,0,0,0,0,0,0,0,0
2020-03-14_10-00,6,0,0,0,0,0,0,0,0
2020-03-14_11-00,0,0,1,0,0,0,0,0,0
2020-03-14_12-00,0,0,0,0,0,0,0,0,0
2020-03-14_13-00,2,0,0,0,0,0,0,0,0
2020-03-14_14-00,1,0,0,0,0,0,0,0,0
2020-03-14_15-00,4,0,0,0,0,0,0,0,0
2020-03-14_16-00,2,0,0,0,0,0,0,0,0
2020-03-14_17-00,1,0,0,0,0,0,0,0,0
2020-03-14_18-00,1,0,0,0,0,0,0,0,0
2020-03-14_19-00,0,0,0,0,0,0,0,0,0
2020-03-14_20-00,0,0,0,0,0,0,0,0,0
2020-03-14_21-00,0,0,0,0,0,0,0,0,0
2020-03-14_22-00,0,0,0,0,0,0,0,0,0
2020-03-14_23-00,0,0,0,0,0,0,0,0,0
2020-03-15_00-00,0,0,0,0,0,0,0,0,0
2020-03-15_01-00,0,0,0,0,0,0,0,0,0
2020-03-15_02-00,0,0,0,0,0,0,0,0,0
2020-03-15_03-00,0,0,0,0,0,0,0,0,0
2020-03-15_04-00,0,0,0,0,0,0,0,0,0
2020-03-15_05-00,0,0,0,0,0,0,0,0,0
2020-03-15_06-00,1,0,0,0,0,0,0,0,0
2020-03-15_07-00,0,0,0,0,0,0,0,0,0
2020-03-15_08-00,0,0,0,0,0,0,0,0,0
2020-03-15_09-00,0,0,0,0,0,0,1,0,0
2020-03-15_10-00,0,0,0,0,0,0,1,0,0
2020-03-15_11-00,0,0,0,0,0,0,1,0,0
2020-03-15_12-00,1,0,0,0,0,0,0,0,0
2020-03-15_13-00,1,0,0,0,0,0,0,0,0
2020-03-15_14-00,0,0,0,0,0,0,0,0,0
2020-03-15_15-00,0,0,0,0,0,0,0,0,0
2020-03-15_16-00,2,0,0,0,0,0,0,0,0
2020-03-15_17-00,1,0,0,0,0,0,0,0,0
2020-03-15_18-00,6,0,0,0,0,0,0,0,0
2020-03-15_19-00,0,0,0,0,0,0,0,0,0
2020-03-15_20-00,0,0,0,0,0,0,0,0,0
2020-03-15_21-00,0,0,0,0,0,0,0,0,0
2020-03-15_22-00,0,0,0,0,0,0,0,0,0
2020-03-15_23-00,0,0,0,0,0,0,0,0,0
2020-03-16_00-00,0,0,0,0,0,0,0,0,0
2020-03-16_01-00,0,0,0,0,0,0,0,0,0
2020-03-16_02-00,0,0,0,0,0,0,0,0,0
2020-03-16_03-00,0,0,0,0,0,0,0,0,0
2020-03-16_04-00,0,0,0,0,0,0,0,0,0
2020-03-16_05-00,0,0,0,0,0,0,0,0,0
2020-03-16_06-00,0,0,0,0,0,0,0,0,0
2020-03-16_07-00,1,0,0,0,0,0,0,0,0
2020-03-16_08-00,0,0,0,0,0,0,0,0,0
2020-03-16_09-00,0,0,0,0,0,0,1,0,0
2020-03-16_10-00,0,0,0,0,0,0,1,0,0
2020-03-16_11-00,1,0,1,0,0,0,0,0,0
2020-03-16_12-00,0,0,1,0,0,0,0,0,0
2020-03-16_13-00,3,0,1,0,0,0,0,0,0
2020-03-16_14-00,2,0,0,0,0,0,0,0,0
2020-03-16_15-00,1,0,0,0,0,0,0,0,0
2020-03-16_16-00,0,0,0,0,0,0,0,0,0
2020-03-16_17-00,5,0,0,0,0,0,0,0,0
2020-03-16_18-00,0,0,0,0,0,0,0,0,0
2020-03-16_19-00,0,0,0,0,0,0,0,0,0
2020-03-16_20-00,0,0,0,0,0,0,0,0,0
2020-03-16_21-00,0,0,0,0,0,0,0,0,0
2020-03-16_22-00,0,0,0,0,0,0,0,0,0
2020-03-16_23-00,0,0,0,0,0,0,0,0,0
2020-03-17_00-00,0,0,0,0,0,0,0,0,0
2020-03-17_01-00,0,0,0,0,0,0,0,0,0
2020-03-17_02-00,0,0,0,0,0,0,0,0,0
2020-03-17_03-00,0,0,0,0,0,0,0,0,0
2020-03-17_04-00,0,0,0,0,0,0,0,0,0
2020-03-17_05-00,0,0,0,0,0,0,0,0,0
2020-03-17_06-00,0,0,0,0,0,0,0,0,0
2020-03-17_07-00,0,0,0,0,0,0,0,0,0
2020-03-17_08-00,0,0,0,0,0,0,0,0,0
2020-03-17_09-00,0,0,0,0,0,0,1,0,0
2020-03-17_10-00,0,0,0,0,0,0,1,0,0
2020-03-17_11-00,0,0,0,0,0,0,1,0,0
2020-03-17_12-00,0,0,0,0,0,0,0,0,0
2020-03-17_13-00,0,0,0,0,0,0,0,0,0
2020-03-17_14-00,1,0,0,0,0,0,0,0,0
2020-03-17_15-00,0,0,0,0,0,0,0,0,0
2020-03-17_16-00,0,0,0,0,0,0,0,0,0
2020-03-17_17-00,1,0,0,0,0,0,0,0,0
2020-03-17_18-00,2,0,0,0,0,0,0,0,0
2020-03-17_19-00,0,0,0,0,0,0,0,0,0
2020-03-17_20-00,0,0,0,0,0,0,0,0,0
2020-03-17_21-00,0,0,0,0,0,0,0,0,0
2020-03-17_22-00,0,0,0,0,0,0,0,0,0
2020-03-17_23-00,0,0,0,0,0,0,0,0,0
2020-03-18_00-00,0,0,0,0,0,0,0,0,0
2020-03-18_01-00,0,0,0,0,0,0,0,0,0
2020-03-18_02-00,0,0,0,0,0,0,0,0,0
2020-03-18_03-00,0,0,0,0,0,0,0,0,0
2020-03-18_04-00,0,0,0,0,0,0,0,0,0
2020-03-18_05-00,0,0,0,0,0,0,0,0,0
2020-03-18_06-00,0,0,0,0,0,0,0,0,0
2020-03-18_07-00,2,0,0,0,0,0,0,0,0
2020-03-18_08-00,2,0,0,0,0,0,0,0,0
2020-03-18_09-00,1,0,0,0,0,0,1,0,0
2020-03-18_10-00,0,0,0,0,0,0,1,0,0
2020-03-18_11-00,0,0,0,0,0,0,0,0,0
2020-03-18_12-00,0,0,0,0,0,0,0,0,0
2020-03-18_13-00,1,0,0,0,0,0,0,0,0
2020-03-18_14-00,1,0,0,0,0,0,0,0,0
2020-03-18_15-00,1,0,0,0,0,0,0,0,0
2020-03-18_16-00,0,0,0,0,0,0,0,0,0
2020-03-18_17-00,0,0,0,0,0,0,0,0,0
2020-03-18_18-00,1,0,0,0,0,0,0,0,0
2020-03-18_19-00,0,0,0,0,0,0,0,0,0
2020-03-18_20-00,0,0,0,0,0,0,0,0,0
2020-03-18_21-00,0,0,0,0,0,0,0,0,0
2020-03-18_22-00,0,0,0,0,0,0,0,0,0
2020-03-18_23-00,0,0,0,0,0,0,0,0,0
2020-03-19_00-00,0,0,0,0,0,0,0,0,0
2020-03-19_01-00,0,0,0,0,0,0,0,0,0
2020-03-19_02-00,0,0,0,0,0,0,0,0,0
2020-03-19_03-00,0,0,0,0,0,0,0,0,0
2020-03-19_04-00,0,0,0,0,0,0,0,0,0
2020-03-19_05-00,0,0,0,0,0,0,0,0,0
2020-03-19_06-00,0,0,0,0,0,0,0,0,0
2020-03-19_07-00,0,0,0,0,0,0,0,0,0
2020-03-19_08-00,0,0,0,0,0,0,0,0,0
2020-03-19_09-00,1,0,0,0,0,0,1,0,0
2020-03-19_10-00,0,0,0,0,0,0,1,0,0
2020-03-19_11-00,0,0,0,0,0,0,0,0,0
2020-03-19_12-00,0,0,0,0,0,0,0,0,0
2020-03-19_13-00,0,0,0,0,0,0,0,0,0
2020-03-19_14-00,0,0,0,0,0,0,0,0,0
2020-03-19_15-00,1,0,0,0,0,0,0,0,0
2020-03-19_16-00,4,0,0,0,0,0,0,0,0
2020-03-19_17-00,2,0,0,0,0,0,0,0,0
2020-03-19_18-00,5,0,0,0,0,0,0,0,0
2020-03-19_19-00,0,0,0,0,0,0,0,0,0
2020-03-19_20-00,0,0,0,0,0,0,0,0,0
2020-03-19_21-00,0,0,0,0,0,0,0,0,0
2020-03-19_22-00,0,0,0,0,0,0,0,0,0
2020-03-19_23-00,0,0,0,0,0,0,0,0,0
2020-03-20_00-00,0,0,0,0,0,0,0,0,0
2020-03-20_01-00,0,0,0,0,0,0,0,0,0
2020-03-20_02-00,0,0,0,0,0,0,0,0,0
2020-03-20_03-00,0,0,0,0,0,0,0,0,0
2020-03-20_04-00,0,0,0,0,0,0,0,0,0
2020-03-20_05-00,0,0,0,0,0,0,0,0,0
2020-03-20_06-00,0,0,0,0,0,0,0,0,0
2020-03-20_07-00,0,0,0,0,0,0,0,0,0
2020-03-20_08-00,0,0,2,0,0,0,0,0,0
2020-03-20_09-00,0,0,1,0,0,1,0,0,0
2020-03-20_10-00,0,0,1,0,0,0,0,0,0
2020-03-20_11-00,0,0,1,0,0,0,0,0,0
2020-03-20_12-00,0,0,1,0,0,0,0,0,0
2020-03-20_13-00,3,0,1,0,0,0,0,0,0
2020-03-20_14-00,2,0,1,0,0,0,0,0,0
2020-03-20_15-00,0,0,1,0,0,0,0,0,0
2020-03-20_16-00,1,0,0,0,0,0,0,0,0
2020-03-20_17-00,0,0,0,0,0,0,0,0,0
2020-03-20_18-00,3,0,0,0,0,0,0,0,0
2020-03-20_19-00,0,0,0,0,0,0,0,0,0
2020-03-20_20-00,0,0,0,0,0,0,0,0,0
2020-03-20_21-00,0,0,0,0,0,0,0,0,0
2020-03-20_22-00,0,0,0,0,0,0,0,0,0
2020-03-20_23-00,0,0,0,0,0,0,0,0,0
2020-03-21_00-00,0,0,0,0,0,0,0,0,0
2020-03-21_01-00,0,0,0,0,0,0,0,0,0
2020-03-21_02-00,0,0,0,0,0,0,0,0,0
2020-03-21_03-00,0,0,0,0,0,0,0,0,0
2020-03-21_04-00,0,0,0,0,0,0,0,0,0
2020-03-21_05-00,0,0,0,0,0,0,0,0,0
2020-03-21_06-00,0,0,0,0,0,0,0,0,0
2020-03-21_07-00,0,0,0,0,0,0,0,0,0
2020-03-21_08-00,0,0,0,0,0,0,0,0,0
2020-03-21_09-00,0,0,0,0,0,0,0,0,0
2020-03-21_10-00,0,0,0,0,0,0,0,0,0
2020-03-21_11-00,0,0,0,0,0,0,0,0,0
2020-03-21_12-00,0,0,0,0,0,0,0,0,0
2020-03-21_13-00,0,0,0,0,0,0,0,0,0
2020-03-21_14-00,1,0,0,0,0,0,0,0,0
2020-03-21_15-00,0,0,0,0,0,0,0,0,0
2020-03-21_16-00,0,0,0,0,0,0,0,0,0
2020-03-21_17-00,0,0,0,0,0,0,0,0,0
2020-03-21_18-00,0,0,0,0,0,0,0,0,0
2020-03-21_19-00,0,0,0,0,0,0,0,0,0
2020-03-21_20-00,0,0,0,0,0,0,0,0,0
2020-03-21_21-00,0,0,0,0,0,0,0,0,0
2020-03-21_22-00,0,0,0,0,0,0,0,0,0
2020-03-21_23-00,0,0,0,0,0,0,0,0,0
2020-03-22_00-00,0,0,0,0,0,0,0,0,0
2020-03-22_01-00,0,0,0,0,0,0,0,0,0
2020-03-22_02-00,0,0,0,0,0,0,0,0,0
2020-03-22_03-00,0,0,0,0,0,0,0,0,0
2020-03-22_04-00,0,0,0,0,0,0,0,0,0
2020-03-22_05-00,0,0,0,0,0,0,0,0,0
2020-03-22_06-00,0,0,0,0,0,0,0,0,0
2020-03-22_07-00,0,0,0,0,0,0,0,0,0
2020-03-22_08-00,0,0,0,0,0,0,0,0,0
2020-03-22_09-00,0,0,0,0,0,0,0,0,0
2020-03-22_10-00,0,0,0,0,0,0,0,0,0
2020-03-22_11-00,0,0,0,0,0,0,0,0,0
2020-03-22_12-00,1,0,0,0,0,0,0,0,0
2020-03-22_13-00,1,0,0,0,0,0,0,0,0
2020-03-22_14-00,1,0,0,0,0,0,0,0,0
2020-03-22_15-00,1,0,0,0,0,0,0,0,0
2020-03-22_16-00,0,0,0,0,0,0,0,0,0
2020-03-22_17-00,1,0,0,0,0,0,0,0,0
2020-03-22_18-00,0,0,0,0,0,0,0,0,0
2020-03-22_19-00,0,0,0,0,0,0,0,0,0
2020-03-22_20-00,0,0,0,0,0,0,0,0,0
2020-03-22_21-00,0,0,0,0,0,0,0,0,0
2020-03-22_22-00,0,0,0,0,0,0,0,0,0
2020-03-22_23-00,0,0,0,0,0,0,0,0,0
2020-03-23_00-00,0,0,0,0,0,0,0,0,0
2020-03-23_01-00,0,0,0,0,0,0,0,0,0
2020-03-23_02-00,0,0,0,0,0,0,0,0,0
2020-03-23_03-00,0,0,0,0,0,0,0,0,0
2020-03-23_04-00,0,0,0,0,0,0,0,0,0
2020-03-23_05-00,0,0,0,0,0,0,0,0,0
2020-03-23_06-00,0,0,0,0,0,0,0,0,0
2020-03-23_07-00,0,0,0,0,0,0,0,0,0
2020-03-23_08-00,0,0,0,0,0,0,0,0,0
2020-03-23_09-00,0,0,0,0,0,0,0,0,0
2020-03-23_10-00,0,0,0,0,0,0,0,0,0
2020-03-23_11-00,0,0,1,0,0,0,0,0,0
2020-03-23_12-00,0,0,2,0,0,0,0,0,0
2020-03-23_13-00,1,0,2,0,0,0,0,0,0
2020-03-23_14-00,1,0,1,0,0,0,0,0,0
2020-03-23_15-00,0,0,2,0,0,0,0,0,0
2020-03-23_16-00,0,0,1,0,0,0,0,0,0
2020-03-23_17-00,3,0,0,0,0,0,0,0,0
2020-03-23_18-00,0,0,0,0,0,0,0,0,0
2020-03-23_19-00,0,0,0,0,0,0,0,0,0
2020-03-23_20-00,0,0,0,0,0,0,0,0,0
2020-03-23_21-00,0,0,0,0,0,0,0,0,0
2020-03-23_22-00,0,0,0,0,0,0,0,0,0
2020-03-23_23-00,0,0,0,0,0,0,0,0,0
2020-03-24_00-00,0,0,0,0,0,0,0,0,0
2020-03-24_01-00,0,0,0,0,0,0,0,0,0
2020-03-24_02-00,0,0,0,0,0,0,0,0,0
2020-03-24_03-00,0,0,0,0,0,0,0,0,0
2020-03-24_04-00,0,0,0,0,0,0,0,0,0
2020-03-24_05-00,0,0,0,0,0,0,0,0,0
2020-03-24_06-00,1,0,0,0,0,0,0,0,0
2020-03-24_07-00,1,0,0,0,0,0,0,0,0
2020-03-24_08-00,0,0,0,0,0,0,0,0,0
2020-03-24_09-00,0,0,0,0,0,0,1,0,0
2020-03-24_10-00,0,0,0,0,0,0,1,0,0
2020-03-24_11-00,0,0,0,0,0,0,0,0,0
2020-03-24_12-00,0,0,0,0,0,0,0,0,0
2020-03-24_13-00,0,0,0,0,0,0,0,0,0
2020-03-24_14-00,0,0,0,0,0,0,0,0,0
2020-03-24_15-00,3,0,0,0,0,0,0,0,0
2020-03-24_16-00,0,0,0,0,0,0,0,0,0
2020-03-24_17-00,0,0,0,0,0,0,0,0,0
2020-03-24_18-00,1,0,0,0,0,0,0,0,0
2020-03-24_19-00,0,0,0,0,0,0,0,0,0
2020-03-24_20-00,0,0,0,0,0,0,0,0,0
2020-03-24_21-00,0,0,1,0,0,0,0,0,0
2020-03-24_22-00,0,0,0,0,0,0,0,0,0
2020-03-24_23-00,0,0,0,0,0,0,0,0,0
2020-03-25_00-00,0,0,0,0,0,0,0,0,0
2020-03-25_01-00,0,0,0,0,0,0,0,0,0
2020-03-25_02-00,0,0,0,0,0,0,0,0,0
2020-03-25_03-00,0,0,0,0,0,0,0,0,0
2020-03-25_04-00,0,0,0,0,0,0,0,0,0
2020-03-25_05-00,0,0,0,0,0,0,0,0,0
2020-03-25_06-00,2,0,0,0,0,0,0,0,0
2020-03-25_07-00,0,0,0,0,0,0,0,0,0
2020-03-25_08-00,0,0,0,0,0,0,0,0,0
2020-03-25_09-00,0,0,0,0,0,0,1,0,0
2020-03-25_10-00,0,0,0,0,0,0,1,0,0
2020-03-25_11-00,0,0,0,0,0,0,0,0,0
2020-03-25_12-00,0,0,0,0,0,0,0,0,0
2020-03-25_13-00,0,0,0,0,0,0,0,0,0
2020-03-25_14-00,0,0,0,0,0,0,0,0,0
2020-03-25_15-00,0,0,0,0,0,0,0,0,0
2020-03-25_16-00,0,0,0,0,0,0,0,0,0
2020-03-25_17-00,0,0,0,0,0,0,0,0,0
2020-03-25_18-00,0,0,0,0,0,0,0,0,0
2020-03-25_19-00,0,0,0,0,0,0,0,0,0
2020-03-25_20-00,0,0,0,0,0,0,0,0,0
2020-03-25_21-00,0,0,0,0,0,0,0,0,0
2020-03-25_22-00,0,0,0,0,0,0,0,0,0
2020-03-25_23-00,0,0,0,0,0,0,0,0,0
2020-03-26_00-00,0,0,0,0,0,0,0,0,0
2020-03-26_01-00,0,0,0,0,0,0,0,0,0
2020-03-26_02-00,0,0,0,0,0,0,0,0,0
2020-03-26_03-00,0,0,0,0,0,0,0,0,0
2020-03-26_04-00,0,0,0,0,0,0,0,0,0
2020-03-26_05-00,0,0,0,0,0,0,0,0,0
2020-03-26_06-00,0,0,0,0,0,0,0,0,0
2020-03-26_07-00,0,0,0,0,0,0,0,0,0
2020-03-26_08-00,0,0,1,0,0,0,0,0,0
2020-03-26_09-00,1,0,0,0,0,0,0,0,0
2020-03-26_10-00,0,0,0,0,0,0,1,0,0
2020-03-26_11-00,0,0,0,0,0,0,0,0,0
2020-03-26_12-00,1,0,1,0,0,0,0,0,0
2020-03-26_13-00,0,0,1,0,0,0,0,0,0
2020-03-26_14-00,0,0,1,0,0,0,0,0,0
2020-03-26_15-00,0,0,1,0,0,0,0,0,0
2020-03-26_16-00,0,0,1,0,0,0,0,0,0
2020-03-26_17-00,0,0,0,0,0,0,0,0,0
2020-03-26_18-00,0,0,0,0,0,0,0,0,0
2020-03-26_19-00,0,0,0,0,0,0,0,0,0
2020-03-26_20-00,0,0,0,0,0,0,0,0,0
2020-03-26_21-00,0,0,0,0,0,0,0,0,0
2020-03-26_22-00,0,0,0,0,0,0,0,0,0
2020-03-26_23-00,0,0,0,0,0,0,0,0,0
2020-03-27_00-00,0,0,0,0,0,0,0,0,0
2020-03-27_01-00,0,0,0,0,0,0,0,0,0
2020-03-27_02-00,0,0,0,0,0,0,0,0,0
2020-03-27_03-00,0,0,0,0,0,0,0,0,0
2020-03-27_04-00,0,0,0,0,0,0,0,0,0
2020-03-27_05-00,0,0,0,0,0,0,0,0,0
2020-03-27_06-00,0,0,0,0,0,0,0,0,0
2020-03-27_07-00,0,0,0,0,0,0,0,0,0
2020-03-27_08-00,0,0,0,0,0,0,0,0,0
2020-03-27_09-00,0,0,0,0,0,0,1,0,0
2020-03-27_10-00,0,0,0,0,0,0,1,0,0
2020-03-27_11-00,0,0,0,0,0,0,0,0,0
2020-03-27_12-00,0,0,0,0,0,0,0,0,0
2020-03-27_13-00,0,0,0,0,0,0,0,0,0
2020-03-27_14-00,0,0,0,0,0,0,0,0,0
2020-03-27_15-00,0,0,0,0,0,0,0,0,0
2020-03-27_16-00,0,0,0,0,0,0,0,0,0
2020-03-27_17-00,0,0,0,0,0,0,0,0,0
2020-03-27_18-00,1,0,0,0,0,0,0,0,0
2020-03-27_19-00,0,0,0,0,0,0,0,0,0
2020-03-27_20-00,0,0,0,0,0,0,0,0,0
2020-03-27_21-00,0,0,0,0,0,0,0,0,0
2020-03-27_22-00,0,0,0,0,0,0,0,0,0
2020-03-27_23-00,0,0,0,0,0,0,0,0,0
2020-03-28_00-00,0,0,0,0,0,0,0,0,0
2020-03-28_01-00,0,0,0,0,0,0,0,0,0
2020-03-28_02-00,0,0,0,0,0,0,0,0,0
2020-03-28_03-00,0,0,0,0,0,0,0,0,0
2020-03-28_04-00,0,0,0,0,0,0,0,0,0
2020-03-28_05-00,0,0,0,0,0,0,0,0,0
2020-03-28_06-00,0,0,0,0,0,0,0,0,0
2020-03-28_07-00,0,0,0,0,0,0,0,0,0
2020-03-28_08-00,0,0,0,0,0,0,0,0,0
2020-03-28_09-00,0,0,0,0,0,0,1,0,0
2020-03-28_10-00,0,0,0,0,0,0,0,0,0
2020-03-28_11-00,0,0,0,0,0,0,0,0,0
2020-03-28_12-00,0,0,0,0,0,0,0,0,0
2020-03-28_13-00,1,0,0,0,0,0,0,0,0
2020-03-28_14-00,0,0,0,0,0,0,0,0,0
2020-03-28_15-00,0,0,0,0,0,0,0,0,0
2020-03-28_16-00,0,0,0,0,0,0,0,0,0
2020-03-28_17-00,0,0,0,0,0,0,0,0,0
2020-03-28_18-00,0,0,0,0,0,0,0,0,0
2020-03-28_19-00,0,0,0,0,0,0,0,0,0
2020-03-28_20-00,0,0,0,0,0,0,0,0,0
2020-03-28_21-00,0,0,0,0,0,0,0,0,0
2020-03-28_22-00,0,0,0,0,0,0,0,0,0
2020-03-28_23-00,0,0,0,0,0,0,0,0,0
2020-03-29_00-00,0,0,0,0,0,0,0,0,0
2020-03-29_01-00,0,0,0,0,0,0,0,0,0
2020-03-29_03-00,0,0,0,0,0,0,0,0,0
2020-03-29_04-00,0,0,0,0,0,0,0,0,0
2020-03-29_05-00,0,0,0,0,0,0,0,0,0
2020-03-29_06-00,0,0,0,0,0,0,0,0,0
2020-03-29_07-00,0,0,0,0,0,0,0,0,0
2020-03-29_08-00,1,0,0,0,0,0,0,1,0
2020-03-29_09-00,1,0,1,0,0,0,0,0,0
2020-03-29_10-00,0,0,1,0,0,0,0,0,0
2020-03-29_11-00,1,0,1,0,0,0,0,0,0
2020-03-29_12-00,0,0,0,0,0,0,0,0,0
2020-03-29_13-00,0,0,0,0,0,0,0,0,0
2020-03-29_14-00,0,0,0,0,0,0,0,0,0
2020-03-29_15-00,1,0,0,0,0,0,0,0,0
2020-03-29_16-00,1,0,0,0,0,0,0,0,0
2020-03-29_17-00,0,0,0,0,0,0,0,0,0
2020-03-29_18-00,1,0,0,0,0,0,0,0,0
2020-03-29_19-00,2,0,0,0,0,0,0,0,0
2020-03-29_20-00,0,0,0,0,0,0,0,0,0
2020-03-29_21-00,0,0,0,0,0,0,0,0,0
2020-03-29_22-00,0,0,0,0,0,0,0,0,0
2020-03-29_23-00,0,0,0,0,0,0,0,0,0
2020-03-30_00-00,0,0,0,0,0,0,0,0,0
2020-03-30_01-00,0,0,0,0,0,0,0,0,0
2020-03-30_02-00,0,0,0,0,0,0,0,0,0
2020-03-30_03-00,0,0,0,0,0,0,0,0,0
2020-03-30_04-00,0,0,0,0,0,0,0,0,0
2020-03-30_05-00,0,0,0,0,0,0,0,0,0
2020-03-30_06-00,0,0,0,0,0,0,0,0,0
2020-03-30_07-00,0,0,0,0,0,0,0,0,0
2020-03-30_08-00,0,0,0,0,0,0,0,0,0
2020-03-30_09-00,0,0,1,0,0,0,0,0,0
2020-03-30_10-00,0,0,0,0,0,0,0,0,0
2020-03-30_11-00,0,0,3,0,0,0,0,0,0
2020-03-30_12-00,0,0,1,0,0,0,0,0,0
2020-03-30_13-00,0,0,1,0,0,0,0,0,0
2020-03-30_14-00,0,0,1,0,0,0,0,0,0
2020-03-30_15-00,0,0,1,0,0,0,0,0,0
2020-03-30_16-00,0,0,2,0,0,0,0,0,0
2020-03-30_17-00,0,0,0,0,0,0,0,0,0
2020-03-30_18-00,0,0,0,0,0,0,0,0,0
2020-03-30_19-00,0,0,0,0,0,0,0,0,0
2020-03-30_20-00,0,0,0,0,0,0,0,0,0
2020-03-30_21-00,0,0,0,0,0,0,0,0,0
2020-03-30_22-00,0,0,0,0,0,0,0,0,0
2020-03-30_23-00,0,0,0,0,0,0,0,0,0
2020-03-31_00-00,0,0,0,0,0,0,0,0,0
2020-03-31_01-00,0,0,0,0,0,0,0,0,0
2020-03-31_02-00,0,0,0,0,0,0,0,0,0
2020-03-31_03-00,0,0,0,0,0,0,0,0,0
2020-03-31_04-00,0,0,0,0,0,0,0,0,0
2020-03-31_05-00,0,0,0,0,0,0,0,0,0
2020-03-31_06-00,0,0,0,0,0,0,0,0,0
2020-03-31_07-00,0,0,0,0,0,0,0,0,0
2020-03-31_08-00,0,0,0,0,0,0,0,0,0
2020-03-31_09-00,0,0,0,0,0,0,0,0,0
2020-03-31_10-00,0,0,0,0,0,0,1,0,0
2020-03-31_11-00,0,0,0,0,0,0,1,0,0
2020-03-31_12-00,1,0,0,0,0,0,0,0,0
2020-03-31_13-00,0,0,0,0,0,0,0,0,0
2020-03-31_14-00,0,0,1,0,0,0,0,0,0
2020-03-31_15-00,1,0,0,0,0,0,0,0,0
2020-03-31_16-00,1,0,1,0,0,0,0,0,0
2020-03-31_17-00,0,0,0,0,0,0,0,0,0
2020-03-31_18-00,0,0,0,0,0,0,0,0,0
2020-03-31_19-00,0,0,0,0,0,0,0,0,0
2020-03-31_20-00,0,0,0,0,0,0,0,0,0
2020-03-31_21-00,0,0,0,0,0,0,0,0,0
2020-03-31_22-00,0,0,0,0,0,0,0,0,0
2020-03-31_23-00,0,0,0,0,0,0,0,0,0
2020-04-01_00-00,0,0,0,0,0,0,0,0,0
2020-04-01_01-00,0,0,0,0,0,0,0,0,0
2020-04-01_02-00,0,0,0,0,0,0,0,0,0
2020-04-01_03-00,0,0,0,0,0,0,0,0,0
2020-04-01_04-00,0,0,0,0,0,0,0,0,0
2020-04-01_05-00,0,0,0,0,0,0,0,0,0
2020-04-01_06-00,0,0,0,0,0,0,0,0,0
2020-04-01_07-00,0,0,0,0,0,0,0,0,0
2020-04-01_08-00,2,0,0,0,0,0,0,0,0
2020-04-01_09-00,0,0,0,0,0,0,0,0,0
2020-04-01_10-00,0,0,0,0,0,0,1,0,0
2020-04-01_11-00,0,0,2,0,0,0,0,0,0
2020-04-01_12-00,0,0,1,0,0,0,0,0,0
2020-04-01_13-00,0,0,1,0,0,0,0,0,0
2020-04-01_14-00,0,0,1,0,0,0,0,0,0
2020-04-01_15-00,0,0,0,0,0,0,0,0,0
2020-04-01_16-00,0,0,0,0,0,0,0,0,0
2020-04-01_17-00,1,0,0,0,0,0,0,0,0
2020-04-01_18-00,1,0,0,0,0,0,0,0,0
2020-04-01_19-00,1,0,0,0,0,0,0,0,0
2020-04-01_20-00,0,0,0,0,0,0,0,0,0
2020-04-01_21-00,0,0,0,0,0,0,0,0,0
2020-04-01_22-00,0,0,0,0,0,0,0,0,0
2020-04-01_23-00,0,0,0,0,0,0,0,0,0
2020-04-02_00-00,0,0,0,0,0,0,0,0,0
2020-04-02_01-00,0,0,0,0,0,0,0,0,0
2020-04-02_02-00,0,0,0,0,0,0,0,0,0
2020-04-02_03-00,0,0,0,0,0,0,0,0,0
2020-04-02_04-00,0,0,0,0,0,0,0,0,0
2020-04-02_05-00,0,0,0,0,0,0,0,0,0
2020-04-02_06-00,0,0,0,0,0,0,0,0,0
2020-04-02_07-00,0,0,0,0,0,0,0,0,0
2020-04-02_08-00,0,0,0,0,0,0,0,0,0
2020-04-02_09-00,0,0,0,0,0,0,1,0,0
2020-04-02_10-00,0,0,0,0,0,0,1,0,0
2020-04-02_11-00,0,0,0,0,0,0,1,0,0
2020-04-02_12-00,0,0,0,0,0,0,0,0,0
2020-04-02_13-00,0,0,0,0,0,0,0,0,0
2020-04-02_14-00,1,0,0,0,0,0,0,0,0
2020-04-02_15-00,0,0,0,0,0,0,0,0,0
2020-04-02_16-00,0,0,1,0,0,0,0,0,0
2020-04-02_17-00,0,0,0,0,0,0,0,0,0
2020-04-02_18-00,0,0,0,0,0,0,0,0,0
2020-04-02_19-00,0,0,0,0,0,0,0,0,0
2020-04-02_20-00,0,0,0,0,0,0,0,0,0
2020-04-02_21-00,0,0,0,0,0,0,0,0,0
2020-04-02_22-00,0,0,0,0,0,0,0,0,0
2020-04-02_23-00,0,0,0,0,0,0,0,0,0
2020-04-03_00-00,0,0,0,0,0,0,0,0,0
2020-04-03_01-00,0,0,0,0,0,0,0,0,0
2020-04-03_02-00,0,0,0,0,0,0,0,0,0
2020-04-03_03-00,0,0,0,0,0,0,0,0,0
2020-04-03_04-00,0,0,0,0,0,0,0,0,0
2020-04-03_05-00,0,0,0,0,0,0,0,0,0
2020-04-03_06-00,0,0,1,0,0,0,0,0,0
2020-04-03_07-00,0,0,0,0,0,0,0,0,0
2020-04-03_08-00,0,0,0,0,0,0,0,0,0
2020-04-03_09-00,0,0,0,0,0,0,0,0,0
2020-04-03_10-00,0,0,0,0,0,0,1,0,0
2020-04-03_11-00,0,0,2,0,0,0,0,0,0
2020-04-03_12-00,0,0,2,0,0,0,0,0,0
2020-04-03_13-00,1,0,2,0,0,0,0,0,0
2020-04-03_14-00,0,0,2,0,0,0,0,0,0
2020-04-03_15-00,0,0,1,0,0,0,0,0,0
2020-04-03_16-00,0,0,1,0,0,0,0,0,0
2020-04-03_17-00,0,0,0,0,0,0,0,0,0
2020-04-03_18-00,0,0,0,0,0,0,0,0,0
2020-04-03_19-00,0,0,0,0,0,0,0,0,0
2020-04-03_20-00,0,0,0,0,0,0,0,0,0
2020-04-03_21-00,0,0,0,0,0,0,0,0,0
2020-04-03_22-00,0,0,0,0,0,0,0,0,0
2020-04-03_23-00,0,0,0,0,0,0,0,0,0
2020-04-04_00-00,0,0,0,0,0,0,0,0,0
2020-04-04_01-00,0,0,0,0,0,0,0,0,0
2020-04-04_02-00,0,0,0,0,0,0,0,0,0
2020-04-04_03-00,0,0,0,0,0,0,0,0,0
2020-04-04_04-00,0,0,0,0,0,0,0,0,0
2020-04-04_05-00,0,0,0,0,0,0,0,0,0
2020-04-04_06-00,0,0,0,0,0,0,0,0,0
2020-04-04_07-00,0,0,0,0,0,0,0,0,0
2020-04-04_08-00,0,0,0,0,0,0,0,0,0
2020-04-04_09-00,0,0,0,0,0,0,0,0,0
2020-04-04_10-00,0,0,0,0,0,0,0,0,0
2020-04-04_11-00,0,0,0,0,0,0,0,0,0
2020-04-04_12-00,0,0,0,0,0,0,0,0,0
2020-04-04_13-00,0,0,0,0,0,0,0,0,0
2020-04-04_14-00,0,0,0,0,0,0,0,0,0
2020-04-04_15-00,1,0,0,0,0,0,0,0,0
2020-04-04_16-00,1,0,0,0,0,0,0,0,0
2020-04-04_17-00,0,0,0,0,0,0,0,0,0
2020-04-04_18-00,0,0,0,0,0,0,0,0,0
2020-04-04_19-00,0,0,0,0,0,0,0,0,0
2020-04-04_20-00,0,0,0,0,0,0,0,0,0
2020-04-04_21-00,0,0,0,0,0,0,0,0,0
2020-04-04_22-00,0,0,0,0,0,0,0,0,0
2020-04-04_23-00,0,0,0,0,0,0,0,0,0
2020-04-05_00-00,0,0,0,0,0,0,0,0,0
2020-04-05_01-00,0,0,0,0,0,0,0,0,0
2020-04-05_02-00,0,0,0,0,0,0,0,0,0
2020-04-05_03-00,0,0,0,0,0,0,0,0,0
2020-04-05_04-00,0,0,0,0,0,0,0,0,0
2020-04-05_05-00,0,0,0,0,0,0,0,0,0
2020-04-05_06-00,0,0,0,0,0,0,0,0,0
2020-04-05_07-00,0,0,0,0,0,0,0,0,0
2020-04-05_08-00,0,0,0,0,0,0,0,0,0
2020-04-05_09-00,0,0,0,0,0,0,1,0,0
2020-04-05_10-00,0,0,0,0,0,0,1,0,0
2020-04-05_11-00,0,0,0,0,0,0,1,0,0
2020-04-05_12-00,0,0,0,0,0,0,0,0,0
2020-04-05_13-00,0,0,0,0,0,0,0,0,0
2020-04-05_14-00,0,0,0,0,0,0,0,0,0
2020-04-05_15-00,0,0,0,0,0,0,0,0,0
2020-04-05_16-00,0,0,0,0,0,0,0,0,0
2020-04-05_17-00,0,0,0,0,0,0,0,0,0
2020-04-05_18-00,1,0,0,0,0,0,0,0,0
2020-04-05_19-00,1,0,0,0,0,0,0,0,0
2020-04-05_20-00,0,0,0,0,0,0,0,0,0
2020-04-05_21-00,0,0,0,0,0,0,0,0,0
2020-04-05_22-00,0,0,0,0,0,0,0,0,0
2020-04-05_23-00,1,0,0,0,0,0,0,0,0
2020-04-06_00-00,0,0,0,0,0,0,0,0,0
2020-04-06_01-00,0,0,0,0,0,0,0,0,0
2020-04-06_02-00,0,0,0,0,0,0,0,0,0
2020-04-06_03-00,0,0,0,0,0,0,0,0,0
2020-04-06_04-00,0,0,0,0,0,0,0,0,0
2020-04-06_05-00,0,0,0,0,0,0,0,0,0
2020-04-06_06-00,0,0,0,0,0,0,0,0,0
2020-04-06_07-00,0,0,0,0,0,0,0,0,0
2020-04-06_08-00,0,0,0,0,0,0,0,0,0
2020-04-06_09-00,0,0,0,0,0,0,1,0,0
2020-04-06_10-00,0,0,0,0,0,0,1,0,0
2020-04-06_11-00,0,0,0,0,0,0,1,0,0
2020-04-06_12-00,0,0,0,0,0,0,0,0,0
2020-04-06_13-00,0,0,1,0,0,0,0,0,0
2020-04-06_14-00,0,0,0,0,0,0,0,0,0
2020-04-06_15-00,0,0,0,0,0,0,0,0,0
2020-04-06_16-00,0,0,1,0,0,0,0,0,0
2020-04-06_17-00,0,0,0,0,0,0,0,0,0
2020-04-06_18-00,0,0,0,0,0,0,0,0,0
2020-04-06_19-00,0,0,0,0,0,0,0,0,0
2020-04-06_20-00,0,0,0,0,0,0,0,0,0
2020-04-06_21-00,0,0,0,0,0,0,0,0,0
2020-04-06_22-00,0,0,0,0,0,0,0,0,0
2020-04-06_23-00,0,0,0,0,0,0,0,0,0
2020-04-07_00-00,0,0,0,0,0,0,0,0,0
2020-04-07_01-00,0,0,0,0,0,0,0,0,0
2020-04-07_02-00,0,0,0,0,0,0,0,0,0
2020-04-07_03-00,0,0,0,0,0,0,0,0,0
2020-04-07_04-00,0,0,0,0,0,0,0,0,0
2020-04-07_05-00,0,0,0,0,0,0,0,0,0
2020-04-07_06-00,0,0,0,0,0,0,0,0,0
2020-04-07_07-00,0,0,0,0,0,0,0,0,0
2020-04-07_08-00,0,0,0,0,0,0,0,0,0
2020-04-07_09-00,0,0,0,0,0,0,1,0,0
2020-04-07_10-00,0,0,0,0,0,0,0,0,0
2020-04-07_11-00,0,0,2,0,0,0,0,1,0
2020-04-07_12-00,0,0,1,0,0,0,0,1,0
2020-04-07_13-00,0,0,1,0,0,0,0,1,0
2020-04-07_14-00,0,0,1,0,0,0,0,0,0
2020-04-07_15-00,0,0,1,0,0,0,0,0,0
2020-04-07_16-00,0,0,0,0,0,0,0,0,0
2020-04-07_17-00,0,0,0,0,0,0,0,0,0
2020-04-07_18-00,0,0,0,0,0,0,0,0,0
2020-04-07_19-00,0,0,0,0,0,0,0,0,0
2020-04-07_20-00,0,0,0,0,0,0,0,0,0
2020-04-07_21-00,0,0,0,0,0,0,0,0,0
2020-04-07_22-00,0,0,0,0,0,0,0,0,0
2020-04-07_23-00,0,0,0,0,0,0,0,0,0
2020-04-08_00-00,0,0,0,0,0,0,0,0,0
2020-04-08_01-00,0,0,0,0,0,0,0,0,0
2020-04-08_02-00,0,0,0,0,0,0,0,0,0
2020-04-08_03-00,0,0,0,0,0,0,0,0,0
2020-04-08_04-00,0,0,0,0,0,0,0,0,0
2020-04-08_05-00,0,0,0,0,0,0,0,0,0
2020-04-08_06-00,0,0,0,0,0,0,0,0,0
2020-04-08_07-00,0,0,0,0,0,0,0,0,0
2020-04-08_08-00,0,0,0,0,0,0,0,0,0
2020-04-08_09-00,0,0,0,0,0,0,0,0,0
2020-04-08_10-00,0,0,0,0,0,0,0,0,0
2020-04-08_11-00,1,0,2,0,0,0,0,0,0
2020-04-08_12-00,0,0,0,0,0,0,0,0,0
2020-04-08_13-00,0,0,1,0,0,0,0,0,0
2020-04-08_14-00,0,0,0,0,0,0,0,0,0
2020-04-08_15-00,0,0,1,0,0,0,0,0,0
2020-04-08_16-00,0,0,0,0,0,0,0,0,0
2020-04-08_17-00,1,0,0,0,0,0,0,0,0
2020-04-08_18-00,0,0,0,0,0,0,0,0,0
2020-04-08_19-00,0,0,0,0,0,0,0,0,0
2020-04-08_20-00,0,0,0,0,0,0,0,0,0
2020-04-08_21-00,0,0,0,0,0,0,0,0,0
2020-04-08_22-00,0,0,0,0,0,0,0,0,0
2020-04-08_23-00,0,0,0,0,0,0,0,0,0
2020-04-09_00-00,0,0,0,0,0,0,0,0,0
2020-04-09_01-00,0,0,0,0,0,0,0,0,0
2020-04-09_02-00,0,0,0,0,0,0,0,0,0
2020-04-09_03-00,0,0,0,0,0,0,0,0,0
2020-04-09_04-00,0,0,0,0,0,0,0,0,0
2020-04-09_05-00,0,0,0,0,0,0,0,0,0
2020-04-09_06-00,0,0,0,0,0,0,0,0,0
2020-04-09_07-00,0,0,0,0,0,0,0,0,0
2020-04-09_08-00,0,0,1,0,0,0,0,0,0
2020-04-09_09-00,0,0,0,0,0,0,0,0,0
2020-04-09_10-00,0,0,0,0,0,0,0,0,0
2020-04-09_11-00,0,0,2,0,0,0,0,0,0
2020-04-09_12-00,0,0,1,0,0,0,0,0,0
2020-04-09_13-00,1,0,1,0,0,0,0,0,0
2020-04-09_14-00,0,0,1,0,0,0,0,0,0
2020-04-09_15-00,0,0,1,0,0,0,0,0,0
2020-04-09_16-00,0,0,0,0,0,0,0,0,0
2020-04-09_17-00,1,0,0,0,0,0,0,0,0
2020-04-09_18-00,1,0,0,0,0,0,0,0,0
2020-04-09_19-00,1,0,1,0,0,0,0,0,0
2020-04-09_20-00,0,0,0,0,0,0,0,0,0
2020-04-09_21-00,0,0,0,0,0,0,0,0,0
2020-04-09_22-00,0,0,0,0,0,0,0,0,0
2020-04-09_23-00,0,0,0,0,0,0,0,0,0
2020-04-10_00-00,0,0,0,0,0,0,0,0,0
2020-04-10_01-00,0,0,0,0,0,0,0,0,0
2020-04-10_02-00,0,0,0,0,0,0,0,0,0
2020-04-10_03-00,0,0,0,0,0,0,0,0,0
2020-04-10_04-00,0,0,0,0,0,0,0,0,0
2020-04-10_05-00,0,0,0,0,0,0,0,0,0
2020-04-10_06-00,0,0,0,0,0,0,0,0,0
2020-04-10_07-00,0,0,0,0,0,0,0,0,0
2020-04-10_08-00,0,0,0,0,0,0,0,0,0
2020-04-10_09-00,0,0,0,0,0,0,0,0,0
2020-04-10_10-00,0,0,0,0,0,0,0,0,0
2020-04-10_11-00,0,0,0,0,0,0,0,0,0
2020-04-10_12-00,0,0,0,0,0,0,0,0,0
2020-04-10_13-00,0,0,0,0,0,0,0,0,0
2020-04-10_14-00,0,0,0,0,0,0,0,0,0
2020-04-10_15-00,0,0,0,0,0,0,0,0,0
2020-04-10_16-00,0,0,0,0,0,0,0,0,0
2020-04-10_17-00,2,0,0,0,0,0,0,0,0
2020-04-10_18-00,1,0,0,0,0,0,0,0,0
2020-04-10_19-00,0,0,0,0,0,0,0,0,0
2020-04-10_20-00,0,0,0,0,0,0,0,0,0
2020-04-10_21-00,0,0,0,0,0,0,0,0,0
2020-04-10_22-00,0,0,0,0,0,0,0,0,0
2020-04-10_23-00,0,0,0,0,0,0,0,0,0
2020-04-11_00-00,0,0,0,0,0,0,0,0,0
2020-04-11_01-00,0,0,0,0,0,0,0,0,0
2020-04-11_02-00,0,0,0,0,0,0,0,0,0
2020-04-11_03-00,0,0,0,0,0,0,0,0,0
2020-04-11_04-00,0,0,0,0,0,0,0,0,0
2020-04-11_05-00,0,0,0,0,0,0,0,0,0
2020-04-11_06-00,0,0,0,0,0,0,0,0,0
2020-04-11_07-00,0,0,0,0,0,0,0,0,0
2020-04-11_08-00,0,0,0,0,0,0,0,0,0
2020-04-11_09-00,0,0,0,0,0,0,0,0,0
2020-04-11_10-00,0,0,0,0,0,0,0,0,0
2020-04-11_11-00,0,0,0,0,0,0,0,0,0
2020-04-11_12-00,0,0,0,0,0,0,0,0,0
2020-04-11_13-00,0,0,0,0,0,0,0,0,0
2020-04-11_14-00,2,0,0,0,0,0,0,0,0
2020-04-11_15-00,0,0,0,0,0,0,0,0,0
2020-04-11_16-00,0,0,0,0,0,0,0,0,0
2020-04-11_17-00,0,0,0,0,0,0,0,0,0
2020-04-11_18-00,0,0,0,0,0,0,0,0,0
2020-04-11_19-00,0,0,0,0,0,0,0,0,0
2020-04-11_20-00,0,0,0,0,0,0,0,0,0
2020-04-11_21-00,0,0,0,0,0,0,0,0,0
2020-04-11_22-00,0,0,0,0,0,0,0,0,0
2020-04-11_23-00,0,0,0,0,0,0,0,0,0
2020-04-12_00-00,0,0,0,0,0,0,0,0,0
2020-04-12_01-00,0,0,0,0,0,0,0,0,0
2020-04-12_02-00,0,0,0,0,0,0,0,0,0
2020-04-12_03-00,0,0,0,0,0,0,0,0,0
2020-04-12_04-00,0,0,0,0,0,0,0,0,0
2020-04-12_05-00,0,0,0,0,0,0,0,0,0
2020-04-12_06-00,0,0,0,0,0,0,0,0,0
2020-04-12_07-00,0,0,0,0,0,0,0,0,0
2020-04-12_08-00,0,0,1,0,0,0,0,0,0
2020-04-12_09-00,0,0,1,0,0,0,0,0,0
2020-04-12_10-00,0,0,1,0,0,0,0,0,0
2020-04-12_11-00,0,0,0,0,0,0,0,0,0
2020-04-12_12-00,0,0,0,0,0,0,0,0,0
2020-04-12_13-00,0,0,0,0,0,0,0,0,0
2020-04-12_14-00,0,0,0,0,0,0,0,0,0
2020-04-12_15-00,1,0,0,0,0,0,0,0,0
2020-04-12_16-00,0,0,0,0,0,0,0,0,0
2020-04-12_17-00,0,0,0,0,0,0,0,0,0
2020-04-12_18-00,1,0,0,0,0,0,0,0,0
2020-04-12_19-00,1,0,0,0,0,0,0,0,0
2020-04-12_20-00,0,0,0,0,0,0,0,0,0
2020-04-12_21-00,0,0,0,0,0,0,0,0,0
2020-04-12_22-00,0,0,0,0,0,0,0,0,0
2020-04-12_23-00,0,0,0,0,0,0,0,0,0
2020-04-13_00-00,0,0,0,0,0,0,0,0,0
2020-04-13_01-00,0,0,0,0,0,0,0,0,0
2020-04-13_02-00,0,0,0,0,0,0,0,0,0
2020-04-13_03-00,0,0,0,0,0,0,0,0,0
2020-04-13_04-00,0,0,0,0,0,0,0,0,0
2020-04-13_05-00,0,0,0,0,0,0,0,0,0
2020-04-13_06-00,0,0,0,0,0,0,0,0,0
2020-04-13_07-00,0,0,0,0,0,0,0,0,0
2020-04-13_08-00,0,0,0,0,0,0,0,0,0
2020-04-13_09-00,0,0,0,0,0,0,0,0,0
2020-04-13_10-00,0,0,0,0,0,0,0,0,0
2020-04-13_11-00,0,0,0,0,0,0,0,0,0
2020-04-13_12-00,0,0,0,0,0,0,0,0,0
2020-04-13_13-00,1,0,0,0,0,0,0,0,0
2020-04-13_14-00,1,0,0,0,0,0,0,0,0
2020-04-13_15-00,0,0,0,0,0,0,0,0,0
2020-04-13_16-00,0,0,0,0,0,0,0,0,0
2020-04-13_17-00,0,0,0,0,0,0,0,0,0
2020-04-13_18-00,0,0,0,0,0,0,0,0,0
2020-04-13_19-00,0,0,0,0,0,0,0,0,0
2020-04-13_20-00,0,0,0,0,0,0,0,0,0
2020-04-13_21-00,0,0,0,0,0,0,0,0,0
2020-04-13_22-00,0,0,0,0,0,0,0,0,0
2020-04-13_23-00,0,0,0,0,0,0,0,0,0
2020-04-14_00-00,0,0,0,0,0,0,0,0,0
2020-04-14_01-00,0,0,0,0,0,0,0,0,0
2020-04-14_02-00,0,0,0,0,0,0,0,0,0
2020-04-14_03-00,0,0,0,0,0,0,0,0,0
2020-04-14_04-00,0,0,0,0,0,0,0,0,0
2020-04-14_05-00,0,0,0,0,0,0,0,0,0
2020-04-14_06-00,0,0,0,0,0,0,0,0,0
2020-04-14_07-00,0,0,0,0,0,0,0,0,0
2020-04-14_08-00,0,0,1,0,0,0,0,0,0
2020-04-14_09-00,0,0,2,0,0,0,0,0,0
2020-04-14_10-00,1,0,3,0,0,0,0,0,0
2020-04-14_11-00,0,0,3,0,0,0,0,0,0
2020-04-14_12-00,0,0,4,0,0,0,0,0,0
2020-04-14_13-00,0,0,1,0,0,0,1,0,0
2020-04-14_14-00,0,0,0,0,0,0,1,0,0
2020-04-14_15-00,0,0,4,0,0,0,0,0,0
2020-04-14_16-00,0,0,0,0,0,0,0,0,0
2020-04-14_17-00,0,0,0,0,0,0,0,0,0
2020-04-14_18-00,0,0,0,0,0,0,0,0,0
2020-04-14_19-00,1,0,0,0,0,0,0,0,0
2020-04-14_20-00,0,0,0,0,0,0,0,0,0
2020-04-14_21-00,0,0,0,0,0,0,0,0,0
2020-04-14_22-00,0,0,0,0,0,0,0,0,0
2020-04-14_23-00,0,0,0,0,0,0,0,0,0
2020-04-15_00-00,0,0,0,0,0,0,0,0,0
2020-04-15_01-00,0,0,0,0,0,0,0,0,0
2020-04-15_02-00,0,0,0,0,0,0,0,0,0
2020-04-15_03-00,0,0,0,0,0,0,0,0,0
2020-04-15_04-00,0,0,0,0,0,0,0,0,0
2020-04-15_05-00,0,0,0,0,0,0,0,0,0
2020-04-15_06-00,0,0,0,0,0,0,0,0,0
2020-04-15_07-00,0,0,0,0,0,0,0,0,0
2020-04-15_08-00,0,0,2,0,0,0,0,0,0
2020-04-15_09-00,0,0,2,0,0,0,0,0,0
2020-04-15_10-00,1,0,3,0,0,0,0,0,0
2020-04-15_11-00,1,0,3,0,0,0,0,0,0
2020-04-15_12-00,0,0,2,0,0,0,0,0,0
2020-04-15_13-00,3,0,3,0,0,0,0,0,0
2020-04-15_14-00,0,0,3,0,0,0,0,0,0
2020-04-15_15-00,2,0,2,0,0,0,0,0,0
2020-04-15_16-00,1,0,2,0,0,0,0,0,0
2020-04-15_17-00,0,0,0,0,0,0,0,0,0
2020-04-15_18-00,0,0,0,0,0,0,0,0,0
2020-04-15_19-00,0,0,0,0,0,0,0,0,0
2020-04-15_20-00,1,0,0,0,0,0,0,0,0
2020-04-15_21-00,0,0,0,0,0,0,0,0,0
2020-04-15_22-00,0,0,0,0,0,0,0,0,0
2020-04-15_23-00,0,0,0,0,0,0,0,0,0
2020-04-16_00-00,0,0,0,0,0,0,0,0,0
2020-04-16_01-00,0,0,0,0,0,0,0,0,0
2020-04-16_02-00,0,0,0,0,0,0,0,0,0
2020-04-16_03-00,0,0,0,0,0,0,0,0,0
2020-04-16_04-00,0,0,0,0,0,0,0,0,0
2020-04-16_05-00,0,0,0,0,0,0,0,0,0
2020-04-16_06-00,0,0,0,0,0,0,0,0,0
2020-04-16_07-00,0,0,0,0,0,0,0,0,0
2020-04-16_08-00,0,0,0,0,0,0,0,0,0
2020-04-16_09-00,0,0,1,0,0,0,1,0,0
2020-04-16_10-00,0,0,4,0,0,0,0,0,0
2020-04-16_11-00,0,0,1,0,0,0,0,0,0
2020-04-16_12-00,0,0,0,0,0,0,0,0,0
2020-04-16_13-00,0,0,0,0,0,0,0,0,0
2020-04-16_14-00,0,0,0,0,0,0,1,0,0
2020-04-16_15-00,0,0,0,0,0,0,0,0,0
2020-04-16_16-00,0,0,1,0,0,0,0,0,0
2020-04-16_17-00,1,0,1,0,0,0,0,0,0
2020-04-16_18-00,0,0,1,0,0,0,0,0,0
2020-04-16_19-00,0,0,1,0,0,0,0,0,0
2020-04-16_20-00,0,0,0,0,0,0,0,0,0
2020-04-16_21-00,0,0,0,0,0,0,0,0,0
2020-04-16_22-00,0,0,0,0,0,0,0,0,0
2020-04-16_23-00,0,0,0,0,0,0,0,0,0
2020-04-17_00-00,0,0,0,0,0,0,0,0,0
2020-04-17_01-00,0,0,0,0,0,0,0,0,0
2020-04-17_02-00,0,0,0,0,0,0,0,0,0
2020-04-17_03-00,0,0,0,0,0,0,0,0,0
2020-04-17_04-00,0,0,0,0,0,0,0,0,0
2020-04-17_05-00,0,0,0,0,0,0,0,0,0
2020-04-17_06-00,0,0,0,0,0,0,0,0,0
2020-04-17_07-00,0,0,0,0,0,0,0,0,0
2020-04-17_08-00,0,0,2,0,0,0,0,0,0
2020-04-17_09-00,0,0,1,0,0,0,0,0,0
2020-04-17_10-00,0,0,1,0,0,0,0,0,0
2020-04-17_11-00,1,0,3,0,0,0,0,0,0
2020-04-17_12-00,0,0,3,0,0,0,0,0,0
2020-04-17_13-00,0,0,3,0,0,0,0,0,0
2020-04-17_14-00,2,0,3,0,0,0,0,0,0
2020-04-17_15-00,1,0,1,0,0,0,0,0,0
2020-04-17_16-00,0,0,0,0,0,0,0,0,0
2020-04-17_17-00,1,0,0,0,0,0,0,0,0
2020-04-17_18-00,0,0,0,0,0,0,0,0,0
2020-04-17_19-00,1,0,0,0,0,0,0,0,0
2020-04-17_20-00,0,0,0,0,0,0,0,0,0
2020-04-17_21-00,0,0,0,0,0,0,0,0,0
2020-04-17_22-00,0,0,0,0,0,0,0,0,0
2020-04-17_23-00,0,0,0,0,0,0,0,0,0
2020-04-18_00-00,0,0,0,0,0,0,0,0,0
2020-04-18_01-00,0,0,0,0,0,0,0,0,0
2020-04-18_02-00,0,0,0,0,0,0,0,0,0
2020-04-18_03-00,0,0,0,0,0,0,0,0,0
2020-04-18_04-00,0,0,0,0,0,0,0,0,0
2020-04-18_05-00,0,0,0,0,0,0,0,0,0
2020-04-18_06-00,0,0,0,0,0,0,0,0,0
2020-04-18_07-00,0,0,0,0,0,0,0,0,0
2020-04-18_08-00,0,0,0,0,0,0,0,0,0
2020-04-18_09-00,0,0,0,0,0,0,0,0,0
2020-04-18_10-00,0,0,0,0,0,0,0,0,0
2020-04-18_11-00,0,0,0,0,0,0,0,0,0
2020-04-18_12-00,0,0,0,0,0,0,0,0,0
2020-04-18_13-00,0,0,0,0,0,0,0,0,0
2020-04-18_14-00,0,0,0,0,0,0,0,0,0
2020-04-18_15-00,0,0,1,0,0,0,0,0,0
2020-04-18_16-00,0,0,0,0,0,0,0,0,0
2020-04-18_17-00,1,0,0,0,0,0,0,0,0
2020-04-18_18-00,0,0,0,0,0,0,0,0,0
2020-04-18_19-00,0,0,0,0,0,0,0,0,0
2020-04-18_20-00,0,0,1,0,0,0,0,0,0
2020-04-18_21-00,0,0,1,0,0,0,0,0,0
2020-04-18_22-00,0,0,1,0,0,0,0,0,0
2020-04-18_23-00,0,0,0,0,0,0,0,0,0
2020-04-19_00-00,0,0,0,0,0,0,0,0,0
2020-04-19_01-00,0,0,0,0,0,0,0,0,0
2020-04-19_02-00,0,0,0,0,0,0,0,0,0
2020-04-19_03-00,0,0,0,0,0,0,0,0,0
2020-04-19_04-00,0,0,0,0,0,0,0,0,0
2020-04-19_05-00,0,0,0,0,0,0,0,0,0
2020-04-19_06-00,0,0,0,0,0,0,0,0,0
2020-04-19_07-00,0,0,0,0,0,0,0,0,0
2020-04-19_08-00,2,0,0,0,0,0,0,1,0
2020-04-19_09-00,0,0,0,0,0,0,0,0,0
2020-04-19_10-00,0,0,0,0,0,0,0,0,0
2020-04-19_11-00,0,0,0,0,0,0,0,0,0
2020-04-19_12-00,3,0,0,0,0,0,0,0,0
2020-04-19_13-00,0,0,0,0,0,0,0,0,0
2020-04-19_14-00,2,0,0,0,0,0,0,0,0
2020-04-19_15-00,2,0,0,0,0,0,0,0,0
2020-04-19_16-00,1,0,0,0,0,0,0,0,0
2020-04-19_17-00,4,0,0,0,0,0,0,0,0
2020-04-19_18-00,0,0,0,0,0,0,0,0,0
2020-04-19_19-00,1,0,0,0,0,0,0,0,0
2020-04-19_20-00,0,0,0,0,0,0,0,0,0
2020-04-19_21-00,0,0,0,0,0,0,0,0,0
2020-04-19_22-00,0,0,0,0,0,0,0,0,0
2020-04-19_23-00,0,0,0,0,0,0,0,0,0
